SerialParalelo-verde/SerialParalelo_verde.vcd
$date
	Fri Jun  4 18:51:04 2021
$end
$version
	Icarus Verilog
$end
$timescale
	1s
$end
$scope module BUF $end
$var wire 1 ! A $end
$var wire 1 " Y $end
$upscope $end
$scope module BancoPruebasSerialParalelo_verde $end
$var wire 1 # valid_out_estruct $end
$var wire 1 $ valid_out $end
$var wire 1 % reset $end
$var wire 1 & data_in $end
$var wire 8 ' data2send_estruct [7:0] $end
$var wire 8 ( data2send [7:0] $end
$var wire 1 ) clk_4f $end
$var wire 1 * clk_32f $end
$var wire 1 + active_estruct $end
$var wire 1 , active $end
$scope module conductual $end
$var wire 1 % reset $end
$var wire 1 & data_in $end
$var wire 1 ) clk_4f $end
$var wire 1 * clk_32f $end
$var reg 3 - BC_counter [2:0] $end
$var reg 1 , active $end
$var reg 8 . data2send [7:0] $end
$var reg 3 / selector [2:0] $end
$var reg 1 0 temp0 $end
$var reg 1 1 temp1 $end
$var reg 1 2 temp2 $end
$var reg 1 3 temp3 $end
$var reg 1 4 temp4 $end
$var reg 1 5 temp5 $end
$var reg 1 6 temp6 $end
$var reg 1 7 temp7 $end
$var reg 1 $ valid_out $end
$upscope $end
$scope module estructural $end
$var wire 1 # valid_out_estruct $end
$var wire 1 8 temp7 $end
$var wire 1 9 temp6 $end
$var wire 1 : temp5 $end
$var wire 1 ; temp4 $end
$var wire 1 < temp3 $end
$var wire 1 = temp2 $end
$var wire 1 > temp1 $end
$var wire 1 ? temp0 $end
$var wire 3 @ selector [2:0] $end
$var wire 1 % reset $end
$var wire 1 & data_in $end
$var wire 8 A data2send_estruct [7:0] $end
$var wire 1 ) clk_4f $end
$var wire 1 * clk_32f $end
$var wire 1 + active_estruct $end
$var wire 1 B _115_ $end
$var wire 1 C _114_ $end
$var wire 1 D _113_ $end
$var wire 1 E _112_ $end
$var wire 1 F _111_ $end
$var wire 1 G _110_ $end
$var wire 1 H _109_ $end
$var wire 1 I _108_ $end
$var wire 1 J _107_ $end
$var wire 1 K _106_ $end
$var wire 1 L _105_ $end
$var wire 1 M _104_ $end
$var wire 1 N _103_ $end
$var wire 1 O _102_ $end
$var wire 1 P _101_ $end
$var wire 1 Q _100_ $end
$var wire 1 R _099_ $end
$var wire 1 S _098_ $end
$var wire 1 T _097_ $end
$var wire 1 U _096_ $end
$var wire 1 V _095_ $end
$var wire 1 W _094_ $end
$var wire 1 X _093_ $end
$var wire 1 Y _092_ $end
$var wire 1 Z _091_ $end
$var wire 1 [ _090_ $end
$var wire 1 \ _089_ $end
$var wire 1 ] _088_ $end
$var wire 1 ^ _087_ $end
$var wire 1 _ _086_ $end
$var wire 1 ` _085_ $end
$var wire 1 a _084_ $end
$var wire 1 b _083_ $end
$var wire 1 c _082_ $end
$var wire 1 d _081_ $end
$var wire 1 e _080_ $end
$var wire 1 f _079_ $end
$var wire 1 g _078_ $end
$var wire 1 h _077_ $end
$var wire 1 i _076_ $end
$var wire 1 j _075_ $end
$var wire 1 k _074_ $end
$var wire 1 l _073_ $end
$var wire 1 m _072_ $end
$var wire 1 n _071_ $end
$var wire 1 o _070_ $end
$var wire 1 p _069_ $end
$var wire 1 q _068_ $end
$var wire 1 r _067_ $end
$var wire 1 s _066_ $end
$var wire 1 t _065_ $end
$var wire 1 u _064_ $end
$var wire 1 v _063_ $end
$var wire 1 w _062_ $end
$var wire 1 x _061_ $end
$var wire 1 y _060_ $end
$var wire 1 z _059_ $end
$var wire 1 { _058_ $end
$var wire 1 | _057_ $end
$var wire 1 } _056_ $end
$var wire 1 ~ _055_ $end
$var wire 1 !" _054_ $end
$var wire 1 "" _053_ $end
$var wire 1 #" _052_ $end
$var wire 1 $" _051_ $end
$var wire 1 %" _050_ $end
$var wire 1 &" _049_ $end
$var wire 1 '" _048_ $end
$var wire 1 (" _047_ $end
$var wire 1 )" _046_ $end
$var wire 1 *" _045_ $end
$var wire 1 +" _044_ $end
$var wire 1 ," _043_ $end
$var wire 1 -" _042_ $end
$var wire 1 ." _041_ $end
$var wire 1 /" _040_ $end
$var wire 1 0" _039_ $end
$var wire 1 1" _038_ $end
$var wire 1 2" _037_ $end
$var wire 1 3" _036_ $end
$var wire 1 4" _035_ $end
$var wire 1 5" _034_ $end
$var wire 1 6" _033_ $end
$var wire 1 7" _032_ $end
$var wire 1 8" _031_ $end
$var wire 1 9" _030_ $end
$var wire 1 :" _029_ $end
$var wire 1 ;" _028_ $end
$var wire 1 <" _027_ $end
$var wire 1 =" _026_ $end
$var wire 1 >" _025_ $end
$var wire 1 ?" _024_ $end
$var wire 1 @" _023_ $end
$var wire 1 A" _022_ $end
$var wire 1 B" _021_ $end
$var wire 1 C" _020_ $end
$var wire 1 D" _019_ $end
$var wire 1 E" _018_ $end
$var wire 1 F" _017_ $end
$var wire 1 G" _016_ $end
$var wire 1 H" _015_ $end
$var wire 1 I" _014_ $end
$var wire 1 J" _013_ $end
$var wire 1 K" _012_ $end
$var wire 1 L" _011_ $end
$var wire 1 M" _010_ $end
$var wire 1 N" _009_ $end
$var wire 1 O" _008_ $end
$var wire 1 P" _007_ $end
$var wire 1 Q" _006_ $end
$var wire 1 R" _005_ $end
$var wire 1 S" _004_ $end
$var wire 1 T" _003_ $end
$var wire 1 U" _002_ $end
$var wire 1 V" _001_ $end
$var wire 1 W" _000_ $end
$var wire 3 X" BC_counter [2:0] $end
$scope module _116_ $end
$var wire 1 f Y $end
$var wire 1 % A $end
$upscope $end
$scope module _117_ $end
$var wire 1 e Y $end
$var wire 1 & A $end
$upscope $end
$scope module _118_ $end
$var wire 1 d Y $end
$var wire 1 8 A $end
$upscope $end
$scope module _119_ $end
$var wire 1 Q" Y $end
$var wire 1 * A $end
$upscope $end
$scope module _120_ $end
$var wire 1 c Y $end
$var wire 1 9 A $end
$upscope $end
$scope module _121_ $end
$var wire 1 b Y $end
$var wire 1 : A $end
$upscope $end
$scope module _122_ $end
$var wire 1 a Y $end
$var wire 1 ; A $end
$upscope $end
$scope module _123_ $end
$var wire 1 ` Y $end
$var wire 1 < A $end
$upscope $end
$scope module _124_ $end
$var wire 1 _ Y $end
$var wire 1 = A $end
$upscope $end
$scope module _125_ $end
$var wire 1 ^ Y $end
$var wire 1 > A $end
$upscope $end
$scope module _126_ $end
$var wire 1 ] Y $end
$var wire 1 ? A $end
$upscope $end
$scope module _127_ $end
$var wire 1 Y" A $end
$var wire 1 \ Y $end
$upscope $end
$scope module _128_ $end
$var wire 1 Z" A $end
$var wire 1 [ Y $end
$upscope $end
$scope module _129_ $end
$var wire 1 [" A $end
$var wire 1 Z Y $end
$upscope $end
$scope module _130_ $end
$var wire 1 \" A $end
$var wire 1 Y Y $end
$upscope $end
$scope module _131_ $end
$var wire 1 ]" A $end
$var wire 1 X Y $end
$upscope $end
$scope module _132_ $end
$var wire 1 ^" A $end
$var wire 1 W Y $end
$upscope $end
$scope module _133_ $end
$var wire 1 _" A $end
$var wire 1 V Y $end
$upscope $end
$scope module _134_ $end
$var wire 1 `" A $end
$var wire 1 U Y $end
$upscope $end
$scope module _135_ $end
$var wire 1 a" A $end
$var wire 1 b" B $end
$var wire 1 T Y $end
$upscope $end
$scope module _136_ $end
$var wire 1 T A $end
$var wire 1 S Y $end
$upscope $end
$scope module _137_ $end
$var wire 1 c" A $end
$var wire 1 S B $end
$var wire 1 R Y $end
$upscope $end
$scope module _138_ $end
$var wire 1 e A $end
$var wire 1 R B $end
$var wire 1 Q Y $end
$upscope $end
$scope module _139_ $end
$var wire 1 R B $end
$var wire 1 P Y $end
$var wire 1 8 A $end
$upscope $end
$scope module _140_ $end
$var wire 1 P A $end
$var wire 1 O Y $end
$upscope $end
$scope module _141_ $end
$var wire 1 Q A $end
$var wire 1 O B $end
$var wire 1 N Y $end
$upscope $end
$scope module _142_ $end
$var wire 1 N B $end
$var wire 1 8" Y $end
$var wire 1 % A $end
$upscope $end
$scope module _143_ $end
$var wire 1 W A $end
$var wire 1 d" B $end
$var wire 1 M Y $end
$upscope $end
$scope module _144_ $end
$var wire 1 e" A $end
$var wire 1 M B $end
$var wire 1 L Y $end
$upscope $end
$scope module _145_ $end
$var wire 1 c A $end
$var wire 1 L B $end
$var wire 1 K Y $end
$upscope $end
$scope module _146_ $end
$var wire 1 L B $end
$var wire 1 J Y $end
$var wire 1 & A $end
$upscope $end
$scope module _147_ $end
$var wire 1 f A $end
$var wire 1 K B $end
$var wire 1 I Y $end
$upscope $end
$scope module _148_ $end
$var wire 1 J A $end
$var wire 1 I B $end
$var wire 1 9" Y $end
$upscope $end
$scope module _149_ $end
$var wire 1 f" A $end
$var wire 1 V B $end
$var wire 1 H Y $end
$upscope $end
$scope module _150_ $end
$var wire 1 g" A $end
$var wire 1 H B $end
$var wire 1 G Y $end
$upscope $end
$scope module _151_ $end
$var wire 1 b A $end
$var wire 1 G B $end
$var wire 1 F Y $end
$upscope $end
$scope module _152_ $end
$var wire 1 G B $end
$var wire 1 E Y $end
$var wire 1 & A $end
$upscope $end
$scope module _153_ $end
$var wire 1 f A $end
$var wire 1 F B $end
$var wire 1 D Y $end
$upscope $end
$scope module _154_ $end
$var wire 1 E A $end
$var wire 1 D B $end
$var wire 1 :" Y $end
$upscope $end
$scope module _155_ $end
$var wire 1 h" A $end
$var wire 1 i" B $end
$var wire 1 C Y $end
$upscope $end
$scope module _156_ $end
$var wire 1 j" A $end
$var wire 1 C B $end
$var wire 1 B Y $end
$upscope $end
$scope module _157_ $end
$var wire 1 a A $end
$var wire 1 B B $end
$var wire 1 7" Y $end
$upscope $end
$scope module _158_ $end
$var wire 1 B B $end
$var wire 1 6" Y $end
$var wire 1 & A $end
$upscope $end
$scope module _159_ $end
$var wire 1 f A $end
$var wire 1 7" B $end
$var wire 1 5" Y $end
$upscope $end
$scope module _160_ $end
$var wire 1 6" A $end
$var wire 1 5" B $end
$var wire 1 ;" Y $end
$upscope $end
$scope module _161_ $end
$var wire 1 k" A $end
$var wire 1 T B $end
$var wire 1 4" Y $end
$upscope $end
$scope module _162_ $end
$var wire 1 4" B $end
$var wire 1 3" Y $end
$var wire 1 < A $end
$upscope $end
$scope module _163_ $end
$var wire 1 e A $end
$var wire 1 4" B $end
$var wire 1 2" Y $end
$upscope $end
$scope module _164_ $end
$var wire 1 f A $end
$var wire 1 2" B $end
$var wire 1 1" Y $end
$upscope $end
$scope module _165_ $end
$var wire 1 3" A $end
$var wire 1 1" B $end
$var wire 1 <" Y $end
$upscope $end
$scope module _166_ $end
$var wire 1 X A $end
$var wire 1 M B $end
$var wire 1 0" Y $end
$upscope $end
$scope module _167_ $end
$var wire 1 _ A $end
$var wire 1 0" B $end
$var wire 1 /" Y $end
$upscope $end
$scope module _168_ $end
$var wire 1 0" B $end
$var wire 1 ." Y $end
$var wire 1 & A $end
$upscope $end
$scope module _169_ $end
$var wire 1 f A $end
$var wire 1 /" B $end
$var wire 1 -" Y $end
$upscope $end
$scope module _170_ $end
$var wire 1 ." A $end
$var wire 1 -" B $end
$var wire 1 =" Y $end
$upscope $end
$scope module _171_ $end
$var wire 1 X A $end
$var wire 1 H B $end
$var wire 1 ," Y $end
$upscope $end
$scope module _172_ $end
$var wire 1 ^ A $end
$var wire 1 ," B $end
$var wire 1 +" Y $end
$upscope $end
$scope module _173_ $end
$var wire 1 ," B $end
$var wire 1 *" Y $end
$var wire 1 & A $end
$upscope $end
$scope module _174_ $end
$var wire 1 f A $end
$var wire 1 +" B $end
$var wire 1 )" Y $end
$upscope $end
$scope module _175_ $end
$var wire 1 *" A $end
$var wire 1 )" B $end
$var wire 1 >" Y $end
$upscope $end
$scope module _176_ $end
$var wire 1 X A $end
$var wire 1 C B $end
$var wire 1 (" Y $end
$upscope $end
$scope module _177_ $end
$var wire 1 ] A $end
$var wire 1 (" B $end
$var wire 1 '" Y $end
$upscope $end
$scope module _178_ $end
$var wire 1 (" B $end
$var wire 1 &" Y $end
$var wire 1 & A $end
$upscope $end
$scope module _179_ $end
$var wire 1 f A $end
$var wire 1 '" B $end
$var wire 1 %" Y $end
$upscope $end
$scope module _180_ $end
$var wire 1 &" A $end
$var wire 1 %" B $end
$var wire 1 ?" Y $end
$upscope $end
$scope module _181_ $end
$var wire 1 Y A $end
$var wire 1 l" B $end
$var wire 1 $" Y $end
$upscope $end
$scope module _182_ $end
$var wire 1 m" A $end
$var wire 1 U B $end
$var wire 1 #" Y $end
$upscope $end
$scope module _183_ $end
$var wire 1 n" A $end
$var wire 1 o" B $end
$var wire 1 "" Y $end
$upscope $end
$scope module _184_ $end
$var wire 1 "" A $end
$var wire 1 !" Y $end
$upscope $end
$scope module _185_ $end
$var wire 1 #" A $end
$var wire 1 !" B $end
$var wire 1 ~ Y $end
$upscope $end
$scope module _186_ $end
$var wire 1 $" A $end
$var wire 1 "" B $end
$var wire 1 } Y $end
$upscope $end
$scope module _187_ $end
$var wire 1 p" A $end
$var wire 1 q" B $end
$var wire 1 | Y $end
$upscope $end
$scope module _188_ $end
$var wire 1 r" A $end
$var wire 1 s" B $end
$var wire 1 { Y $end
$upscope $end
$scope module _189_ $end
$var wire 1 | A $end
$var wire 1 { B $end
$var wire 1 z Y $end
$upscope $end
$scope module _190_ $end
$var wire 1 z A $end
$var wire 1 y Y $end
$upscope $end
$scope module _191_ $end
$var wire 1 } A $end
$var wire 1 y B $end
$var wire 1 x Y $end
$upscope $end
$scope module _192_ $end
$var wire 1 ~ A $end
$var wire 1 z B $end
$var wire 1 w Y $end
$upscope $end
$scope module _193_ $end
$var wire 1 Z A $end
$var wire 1 w B $end
$var wire 1 v Y $end
$upscope $end
$scope module _194_ $end
$var wire 1 t" A $end
$var wire 1 x B $end
$var wire 1 u Y $end
$upscope $end
$scope module _195_ $end
$var wire 1 [ A $end
$var wire 1 u B $end
$var wire 1 t Y $end
$upscope $end
$scope module _196_ $end
$var wire 1 u" A $end
$var wire 1 v B $end
$var wire 1 s Y $end
$upscope $end
$scope module _197_ $end
$var wire 1 v" B $end
$var wire 1 r Y $end
$var wire 1 % A $end
$upscope $end
$scope module _198_ $end
$var wire 1 t A $end
$var wire 1 r B $end
$var wire 1 q Y $end
$upscope $end
$scope module _199_ $end
$var wire 1 \ B $end
$var wire 1 p Y $end
$var wire 1 % A $end
$upscope $end
$scope module _200_ $end
$var wire 1 s A $end
$var wire 1 p B $end
$var wire 1 o Y $end
$upscope $end
$scope module _201_ $end
$var wire 1 q A $end
$var wire 1 o B $end
$var wire 1 @" Y $end
$upscope $end
$scope module _202_ $end
$var wire 1 [ A $end
$var wire 1 u B $end
$var wire 1 n Y $end
$upscope $end
$scope module _203_ $end
$var wire 1 f A $end
$var wire 1 n B $end
$var wire 1 m Y $end
$upscope $end
$scope module _204_ $end
$var wire 1 t A $end
$var wire 1 m B $end
$var wire 1 A" Y $end
$upscope $end
$scope module _205_ $end
$var wire 1 Z A $end
$var wire 1 w B $end
$var wire 1 l Y $end
$upscope $end
$scope module _206_ $end
$var wire 1 f A $end
$var wire 1 l B $end
$var wire 1 k Y $end
$upscope $end
$scope module _207_ $end
$var wire 1 v A $end
$var wire 1 k B $end
$var wire 1 B" Y $end
$upscope $end
$scope module _208_ $end
$var wire 1 f A $end
$var wire 1 j Y $end
$var wire 1 + B $end
$upscope $end
$scope module _209_ $end
$var wire 1 q A $end
$var wire 1 j B $end
$var wire 1 C" Y $end
$upscope $end
$scope module _210_ $end
$var wire 1 w" A $end
$var wire 1 S B $end
$var wire 1 i Y $end
$upscope $end
$scope module _211_ $end
$var wire 1 f A $end
$var wire 1 R B $end
$var wire 1 h Y $end
$upscope $end
$scope module _212_ $end
$var wire 1 i A $end
$var wire 1 h B $end
$var wire 1 D" Y $end
$upscope $end
$scope module _213_ $end
$var wire 1 f A $end
$var wire 1 T B $end
$var wire 1 g Y $end
$upscope $end
$scope module _214_ $end
$var wire 1 C A $end
$var wire 1 g B $end
$var wire 1 E" Y $end
$upscope $end
$scope module _215_ $end
$var wire 1 f A $end
$var wire 1 x" B $end
$var wire 1 F" Y $end
$upscope $end
$scope module _216_ $end
$var wire 1 x A $end
$var wire 1 j B $end
$var wire 1 G" Y $end
$upscope $end
$scope module _217_ $end
$var wire 1 ] B $end
$var wire 1 H" Y $end
$var wire 1 % A $end
$upscope $end
$scope module _218_ $end
$var wire 1 ^ B $end
$var wire 1 I" Y $end
$var wire 1 % A $end
$upscope $end
$scope module _219_ $end
$var wire 1 _ B $end
$var wire 1 J" Y $end
$var wire 1 % A $end
$upscope $end
$scope module _220_ $end
$var wire 1 ` B $end
$var wire 1 K" Y $end
$var wire 1 % A $end
$upscope $end
$scope module _221_ $end
$var wire 1 a B $end
$var wire 1 L" Y $end
$var wire 1 % A $end
$upscope $end
$scope module _222_ $end
$var wire 1 b B $end
$var wire 1 M" Y $end
$var wire 1 % A $end
$upscope $end
$scope module _223_ $end
$var wire 1 c B $end
$var wire 1 N" Y $end
$var wire 1 % A $end
$upscope $end
$scope module _224_ $end
$var wire 1 d B $end
$var wire 1 O" Y $end
$var wire 1 % A $end
$upscope $end
$scope module _225_ $end
$var wire 1 R" Y $end
$var wire 1 * A $end
$upscope $end
$scope module _226_ $end
$var wire 1 S" Y $end
$var wire 1 * A $end
$upscope $end
$scope module _227_ $end
$var wire 1 T" Y $end
$var wire 1 * A $end
$upscope $end
$scope module _228_ $end
$var wire 1 U" Y $end
$var wire 1 * A $end
$upscope $end
$scope module _229_ $end
$var wire 1 V" Y $end
$var wire 1 * A $end
$upscope $end
$scope module _230_ $end
$var wire 1 W" Y $end
$var wire 1 * A $end
$upscope $end
$scope module _231_ $end
$var wire 1 P" Y $end
$var wire 1 * A $end
$upscope $end
$scope module _232_ $end
$var wire 1 O" D $end
$var wire 1 ) C $end
$var reg 1 y" Q $end
$upscope $end
$scope module _233_ $end
$var wire 1 N" D $end
$var wire 1 ) C $end
$var reg 1 z" Q $end
$upscope $end
$scope module _234_ $end
$var wire 1 M" D $end
$var wire 1 ) C $end
$var reg 1 {" Q $end
$upscope $end
$scope module _235_ $end
$var wire 1 L" D $end
$var wire 1 ) C $end
$var reg 1 |" Q $end
$upscope $end
$scope module _236_ $end
$var wire 1 K" D $end
$var wire 1 ) C $end
$var reg 1 }" Q $end
$upscope $end
$scope module _237_ $end
$var wire 1 J" D $end
$var wire 1 ) C $end
$var reg 1 ~" Q $end
$upscope $end
$scope module _238_ $end
$var wire 1 I" D $end
$var wire 1 ) C $end
$var reg 1 !# Q $end
$upscope $end
$scope module _239_ $end
$var wire 1 H" D $end
$var wire 1 ) C $end
$var reg 1 "# Q $end
$upscope $end
$scope module _240_ $end
$var wire 1 G" D $end
$var wire 1 ) C $end
$var reg 1 # Q $end
$upscope $end
$scope module _241_ $end
$var wire 1 F" D $end
$var wire 1 * C $end
$var reg 1 ## Q $end
$upscope $end
$scope module _242_ $end
$var wire 1 E" D $end
$var wire 1 * C $end
$var reg 1 $# Q $end
$upscope $end
$scope module _243_ $end
$var wire 1 D" D $end
$var wire 1 * C $end
$var reg 1 %# Q $end
$upscope $end
$scope module _244_ $end
$var wire 1 C" D $end
$var wire 1 ) C $end
$var reg 1 + Q $end
$upscope $end
$scope module _245_ $end
$var wire 1 B" D $end
$var wire 1 ) C $end
$var reg 1 &# Q $end
$upscope $end
$scope module _246_ $end
$var wire 1 A" D $end
$var wire 1 ) C $end
$var reg 1 '# Q $end
$upscope $end
$scope module _247_ $end
$var wire 1 @" D $end
$var wire 1 ) C $end
$var reg 1 (# Q $end
$upscope $end
$scope module _248_ $end
$var wire 1 W" C $end
$var wire 1 ?" D $end
$var reg 1 ? Q $end
$upscope $end
$scope module _249_ $end
$var wire 1 V" C $end
$var wire 1 >" D $end
$var reg 1 > Q $end
$upscope $end
$scope module _250_ $end
$var wire 1 U" C $end
$var wire 1 =" D $end
$var reg 1 = Q $end
$upscope $end
$scope module _251_ $end
$var wire 1 T" C $end
$var wire 1 <" D $end
$var reg 1 < Q $end
$upscope $end
$scope module _252_ $end
$var wire 1 S" C $end
$var wire 1 ;" D $end
$var reg 1 ; Q $end
$upscope $end
$scope module _253_ $end
$var wire 1 R" C $end
$var wire 1 :" D $end
$var reg 1 : Q $end
$upscope $end
$scope module _254_ $end
$var wire 1 Q" C $end
$var wire 1 9" D $end
$var reg 1 9 Q $end
$upscope $end
$scope module _255_ $end
$var wire 1 P" C $end
$var wire 1 8" D $end
$var reg 1 8 Q $end
$upscope $end
$upscope $end
$scope module probador $end
$var wire 1 , active $end
$var wire 1 + active_estruct $end
$var wire 8 )# data2send [7:0] $end
$var wire 8 *# data2send_estruct [7:0] $end
$var wire 1 $ valid_out $end
$var wire 1 # valid_out_estruct $end
$var reg 1 * clk_32f $end
$var reg 1 ) clk_4f $end
$var reg 1 & data_in $end
$var reg 1 % reset $end
$upscope $end
$upscope $end
$scope module DFFSR $end
$var wire 1 +# C $end
$var wire 1 ,# D $end
$var wire 1 -# R $end
$var wire 1 .# S $end
$var reg 1 /# Q $end
$upscope $end
$enddefinitions $end
#0
$dumpvars
x/#
z.#
z-#
z,#
z+#
bx *#
bx )#
x(#
x'#
x&#
x%#
x$#
x##
x"#
x!#
x~"
x}"
x|"
x{"
xz"
xy"
xx"
xw"
xv"
xu"
xt"
xs"
xr"
xq"
xp"
xo"
xn"
xm"
xl"
xk"
xj"
xi"
xh"
xg"
xf"
xe"
xd"
xc"
xb"
xa"
x`"
x_"
x^"
x]"
x\"
x["
xZ"
xY"
bx X"
0W"
0V"
0U"
0T"
0S"
0R"
0Q"
0P"
0O"
0N"
0M"
0L"
0K"
0J"
0I"
0H"
0G"
1F"
0E"
0D"
0C"
0B"
0A"
0@"
0?"
0>"
0="
0<"
0;"
0:"
09"
08"
x7"
x6"
15"
x4"
x3"
x2"
11"
x0"
x/"
x."
1-"
x,"
x+"
x*"
1)"
x("
x'"
x&"
1%"
x$"
x#"
x""
x!"
x~
x}
x|
x{
xz
xy
xx
xw
xv
xu
xt
xs
0r
1q
0p
1o
xn
1m
xl
1k
1j
xi
1h
1g
0f
1e
xd
xc
xb
xa
x`
x_
x^
x]
x\
x[
xZ
xY
xX
xW
xV
xU
xT
xS
xR
0Q
xP
xO
xN
xM
xL
xK
xJ
1I
xH
xG
xF
xE
1D
xC
xB
bx A
bx @
x?
x>
x=
x<
x;
x:
x9
x8
x7
x6
x5
x4
x3
x2
x1
x0
bx /
bx .
bx -
x,
x+
1*
1)
bx (
bx '
0&
1%
0$
x#
z"
z!
$end
#2
1N
0O
1P
1d
1]
1^
1_
1`
1a
1b
1c
08
0?
0>
0=
0<
0;
0:
09
07
06
05
04
03
02
01
00
1P"
1W"
1V"
1U"
1T"
1S"
1R"
1Q"
0*
#4
13"
12"
0/"
0."
1+"
1*"
0'"
0&"
1i
07"
06"
0F
0E
0K
0J
04"
10"
0,"
1("
0S
1B
1G
1L
1R
1H
0C
0M
1T
1X
1W
0V
0w"
0k"
0j"
0g"
0e"
0c"
0]"
0h"
0f"
0a"
0^"
1x"
1i"
1d"
1b"
1_"
0%#
0$#
b1 @
1##
b1 /
0P"
0W"
0V"
0U"
0T"
0S"
0R"
0Q"
1*
#6
1P"
1W"
1V"
1U"
1T"
1S"
1R"
1Q"
0*
#8
0P"
0W"
0V"
0U"
0T"
0S"
0R"
0Q"
1*
#10
1P"
1W"
1V"
1U"
1T"
1S"
1R"
1Q"
0*
#12
0P"
0W"
0V"
0U"
0T"
0S"
0R"
0Q"
1*
#14
1P"
1W"
1V"
1U"
1T"
1S"
1R"
1Q"
0*
#16
0P"
0W"
0V"
0U"
0T"
0S"
0R"
0Q"
1*
0)
#18
1P"
1W"
1V"
1U"
1T"
1S"
1R"
1Q"
0*
#20
0P"
0W"
0V"
0U"
0T"
0S"
0R"
0Q"
1*
#22
1P"
1W"
1V"
1U"
1T"
1S"
1R"
1Q"
0*
#24
0P"
0W"
0V"
0U"
0T"
0S"
0R"
0Q"
1*
#26
1P"
1W"
1V"
1U"
1T"
1S"
1R"
1Q"
0*
#28
0P"
0W"
0V"
0U"
0T"
0S"
0R"
0Q"
1*
#30
1P"
1W"
1V"
1U"
1T"
1S"
1R"
1Q"
0*
#32
0l
0x
1w
1}
1y
0~
0z
0t
0n
0v
0$"
0!"
1s
1u
1#"
1{
1|
1""
1\
1[
1Z
1Y
1U
0v"
0Y"
0u"
0Z"
0t"
0["
0m"
0\"
0o"
0s"
0r"
0q"
0p"
0n"
0l"
0`"
0(#
0'#
b0 X"
0&#
0+
0#
0"#
0!#
0~"
0}"
0|"
0{"
0z"
b0 '
b0 A
b0 *#
0y"
b0 (
b0 .
b0 )#
0,
b0 -
0P"
0W"
0V"
0U"
0T"
0S"
0R"
0Q"
1*
1)
#34
1P"
1W"
1V"
1U"
1T"
1S"
1R"
1Q"
0*
#36
0P"
0W"
0V"
0U"
0T"
0S"
0R"
0Q"
1*
#38
1P"
1W"
1V"
1U"
1T"
1S"
1R"
1Q"
0*
#40
0P"
0W"
0V"
0U"
0T"
0S"
0R"
0Q"
1*
#42
1P"
1W"
1V"
1U"
1T"
1S"
1R"
1Q"
0*
#44
0P"
0W"
0V"
0U"
0T"
0S"
0R"
0Q"
1*
#46
1P"
1W"
1V"
1U"
1T"
1S"
1R"
1Q"
0*
#48
0P"
0W"
0V"
0U"
0T"
0S"
0R"
0Q"
1*
0)
#50
1P"
1W"
1V"
1U"
1T"
1S"
1R"
1Q"
0*
#52
0P"
0W"
0V"
0U"
0T"
0S"
0R"
0Q"
1*
#54
1P"
1W"
1V"
1U"
1T"
1S"
1R"
1Q"
0*
#56
0P"
0W"
0V"
0U"
0T"
0S"
0R"
0Q"
1*
#58
1P"
1W"
1V"
1U"
1T"
1S"
1R"
1Q"
0*
#60
0P"
0W"
0V"
0U"
0T"
0S"
0R"
0Q"
1*
#62
1P"
1W"
1V"
1U"
1T"
1S"
1R"
1Q"
0*
#64
0P"
0W"
0V"
0U"
0T"
0S"
0R"
0Q"
1*
1)
#66
1P"
1W"
1V"
1U"
1T"
1S"
1R"
1Q"
0*
#68
1E"
01"
0)"
0h
0g
0F"
1r
1f
0P"
0W"
0V"
0U"
0T"
0S"
0R"
0Q"
0%
1*
#70
1P"
1W"
1V"
1U"
1T"
1S"
1R"
1Q"
0*
#72
0-"
1)"
0>"
1/"
1."
0+"
0*"
00"
1,"
1F"
1M
0H
1V
0W
0x"
0i"
0d"
0b"
0_"
1h"
1f"
1a"
1^"
b10 /
0##
b10 @
1$#
0P"
0W"
0V"
0U"
0T"
0S"
0R"
0Q"
1*
#74
1P"
1W"
1V"
1U"
1T"
1S"
1R"
1Q"
0*
#76
1-"
0="
0<"
11"
1D"
0/"
0."
03"
02"
0E"
0i
10"
14"
1g
1S
0F"
0M
0T
0V
1x"
1i"
1d"
1b"
1_"
b11 @
1##
b11 /
0P"
0W"
0V"
0U"
0T"
0S"
0R"
0Q"
1*
#78
1P"
1W"
1V"
1U"
1T"
1S"
1R"
1Q"
0*
#80
0:"
05"
1D
17"
16"
0F
0E
01"
1D"
0B
1G
0g
13"
12"
0h
0S
1F"
1C
0H
1T
04"
1R
1V
1W
0X
0x"
0i"
0d"
0b"
0_"
0h"
0f"
0a"
0^"
1w"
1k"
1j"
1g"
1e"
1c"
1]"
b100 /
0##
0$#
b100 @
1%#
0P"
0W"
0V"
0U"
0T"
0S"
0R"
0Q"
1*
0)
#82
1P"
1W"
1V"
1U"
1T"
1S"
1R"
1Q"
0*
#84
0D
15"
0;"
1F
1E
07"
06"
0G
1B
1E"
1H
0F"
0C
0V
1x"
1i"
1d"
1b"
1_"
b101 @
1##
b101 /
0P"
0W"
0V"
0U"
0T"
0S"
0R"
0Q"
1*
#86
1P"
1W"
1V"
1U"
1T"
1S"
1R"
1Q"
0*
#88
0I
1D
0:"
1K
1J
0F
0E
0L
1G
1F"
1M
0H
1V
0W
0x"
0i"
0d"
0b"
0_"
1h"
1f"
1a"
1^"
b110 /
0##
b110 @
1$#
0P"
0W"
0V"
0U"
0T"
0S"
0R"
0Q"
1*
#90
1P"
1W"
1V"
1U"
1T"
1S"
1R"
1Q"
0*
#92
0D"
1I
09"
1h
0K
0J
0E"
0R
1L
1g
1S
0F"
0M
0T
0V
1x"
1i"
1d"
1b"
1_"
b111 @
1##
b111 /
0P"
0W"
0V"
0U"
0T"
0S"
0R"
0Q"
1*
#94
1P"
1W"
1V"
1U"
1T"
1S"
1R"
1Q"
0*
#96
0>"
0%"
1)"
1'"
1&"
0+"
0*"
0<"
01"
0D"
1i
0("
1,"
0g
13"
12"
0h
0S
1F"
1C
0H
1T
04"
1R
1V
1W
1X
0x"
0i"
0d"
0b"
0_"
0h"
0f"
0a"
0^"
0w"
0k"
0j"
0g"
0e"
0c"
0]"
b0 /
0##
0$#
b0 @
0%#
0P"
0W"
0V"
0U"
0T"
0S"
0R"
0Q"
1*
1)
#98
1P"
1W"
1V"
1U"
1T"
1S"
1R"
1Q"
0*
#100
0)"
1%"
0?"
1+"
1*"
0'"
0&"
0,"
1("
1E"
1H
0F"
0C
0V
1x"
1i"
1d"
1b"
1_"
b1 @
1##
b1 /
0P"
0W"
0V"
0U"
0T"
0S"
0R"
0Q"
1*
#102
1P"
1W"
1V"
1U"
1T"
1S"
1R"
1Q"
0*
#104
0-"
1)"
0>"
1/"
1."
0+"
0*"
00"
1,"
1F"
1M
0H
1V
0W
0x"
0i"
0d"
0b"
0_"
1h"
1f"
1a"
1^"
b10 /
0##
b10 @
1$#
0P"
0W"
0V"
0U"
0T"
0S"
0R"
0Q"
1*
#106
1P"
1W"
1V"
1U"
1T"
1S"
1R"
1Q"
0*
