ParaleloSerial-azul/ParaleloSerial_azul.vcd
$date
	Fri Jun  4 19:01:57 2021
$end
$version
	Icarus Verilog
$end
$timescale
	1s
$end
$scope module BUF $end
$var wire 1 ! A $end
$var wire 1 " Y $end
$upscope $end
$scope module BancoPruebasParaleloSerial_azul $end
$var wire 1 # valid_in $end
$var wire 1 $ reset $end
$var wire 1 % data_out_estruct $end
$var wire 1 & data_out $end
$var wire 8 ' data_in [7:0] $end
$var wire 1 ( clk4_f $end
$var wire 1 ) clk32_f $end
$scope module conductual $end
$var wire 1 # valid_in $end
$var wire 1 $ reset $end
$var wire 8 * data_in [7:0] $end
$var wire 1 ( clk4_f $end
$var wire 1 ) clk32_f $end
$var reg 8 + data2send [7:0] $end
$var reg 1 & data_out $end
$var reg 1 , idontknow $end
$var reg 1 - lastbit $end
$var reg 3 . selector [2:0] $end
$upscope $end
$scope module estructural $end
$var wire 1 # valid_in $end
$var wire 3 / selector [2:0] $end
$var wire 1 $ reset $end
$var wire 1 0 lastbit $end
$var wire 1 1 idontknow $end
$var wire 1 % data_out_estruct $end
$var wire 8 2 data_in [7:0] $end
$var wire 8 3 data2send [7:0] $end
$var wire 1 ( clk4_f $end
$var wire 1 ) clk32_f $end
$var wire 1 4 _096_ $end
$var wire 1 5 _095_ $end
$var wire 1 6 _094_ $end
$var wire 1 7 _093_ $end
$var wire 1 8 _092_ $end
$var wire 1 9 _091_ $end
$var wire 1 : _090_ $end
$var wire 1 ; _089_ $end
$var wire 1 < _088_ $end
$var wire 1 = _087_ $end
$var wire 1 > _086_ $end
$var wire 1 ? _085_ $end
$var wire 1 @ _084_ $end
$var wire 1 A _083_ $end
$var wire 1 B _082_ $end
$var wire 1 C _081_ $end
$var wire 1 D _080_ $end
$var wire 1 E _079_ $end
$var wire 1 F _078_ $end
$var wire 1 G _077_ $end
$var wire 1 H _076_ $end
$var wire 1 I _075_ $end
$var wire 1 J _074_ $end
$var wire 1 K _073_ $end
$var wire 1 L _072_ $end
$var wire 1 M _071_ $end
$var wire 1 N _070_ $end
$var wire 1 O _069_ $end
$var wire 1 P _068_ $end
$var wire 1 Q _067_ $end
$var wire 1 R _066_ $end
$var wire 1 S _065_ $end
$var wire 1 T _064_ $end
$var wire 1 U _063_ $end
$var wire 1 V _062_ $end
$var wire 1 W _061_ $end
$var wire 1 X _060_ $end
$var wire 1 Y _059_ $end
$var wire 1 Z _058_ $end
$var wire 1 [ _057_ $end
$var wire 1 \ _056_ $end
$var wire 1 ] _055_ $end
$var wire 1 ^ _054_ $end
$var wire 1 _ _053_ $end
$var wire 1 ` _052_ $end
$var wire 1 a _051_ $end
$var wire 1 b _050_ $end
$var wire 1 c _049_ $end
$var wire 1 d _048_ $end
$var wire 1 e _047_ $end
$var wire 1 f _046_ $end
$var wire 1 g _045_ $end
$var wire 1 h _044_ $end
$var wire 1 i _043_ $end
$var wire 1 j _042_ $end
$var wire 1 k _041_ $end
$var wire 1 l _040_ $end
$var wire 1 m _039_ $end
$var wire 1 n _038_ $end
$var wire 1 o _037_ $end
$var wire 1 p _036_ $end
$var wire 1 q _035_ $end
$var wire 1 r _034_ $end
$var wire 1 s _033_ $end
$var wire 1 t _032_ $end
$var wire 1 u _031_ $end
$var wire 1 v _030_ $end
$var wire 1 w _029_ $end
$var wire 1 x _028_ $end
$var wire 1 y _027_ $end
$var wire 1 z _026_ $end
$var wire 1 { _025_ $end
$var wire 1 | _024_ $end
$var wire 1 } _023_ $end
$var wire 1 ~ _022_ $end
$var wire 1 !" _021_ $end
$var wire 1 "" _020_ $end
$var wire 1 #" _019_ $end
$var wire 1 $" _018_ $end
$var wire 1 %" _017_ $end
$var wire 1 &" _016_ $end
$var wire 1 '" _015_ $end
$var wire 1 (" _014_ $end
$var wire 1 )" _013_ $end
$var wire 1 *" _012_ $end
$var wire 1 +" _011_ $end
$var wire 1 ," _010_ $end
$var wire 1 -" _009_ $end
$var wire 1 ." _008_ $end
$var wire 1 /" _007_ $end
$var wire 1 0" _006_ $end
$var wire 1 1" _005_ $end
$var wire 1 2" _004_ $end
$var wire 1 3" _003_ $end
$var wire 1 4" _002_ $end
$var wire 1 5" _001_ $end
$var wire 1 6" _000_ $end
$scope module _097_ $end
$var wire 1 7" A $end
$var wire 1 i Y $end
$upscope $end
$scope module _098_ $end
$var wire 1 h Y $end
$var wire 1 $ A $end
$upscope $end
$scope module _099_ $end
$var wire 1 8" A $end
$var wire 1 g Y $end
$upscope $end
$scope module _100_ $end
$var wire 1 9" A $end
$var wire 1 f Y $end
$upscope $end
$scope module _101_ $end
$var wire 1 :" A $end
$var wire 1 e Y $end
$upscope $end
$scope module _102_ $end
$var wire 1 ;" A $end
$var wire 1 d Y $end
$upscope $end
$scope module _103_ $end
$var wire 1 c Y $end
$var wire 1 # A $end
$upscope $end
$scope module _104_ $end
$var wire 1 <" A $end
$var wire 1 =" B $end
$var wire 1 b Y $end
$upscope $end
$scope module _105_ $end
$var wire 1 b A $end
$var wire 1 a Y $end
$upscope $end
$scope module _106_ $end
$var wire 1 >" A $end
$var wire 1 a B $end
$var wire 1 ` Y $end
$upscope $end
$scope module _107_ $end
$var wire 1 ` B $end
$var wire 1 _ Y $end
$var wire 1 0 A $end
$upscope $end
$scope module _108_ $end
$var wire 1 g A $end
$var wire 1 ` B $end
$var wire 1 ^ Y $end
$upscope $end
$scope module _109_ $end
$var wire 1 h A $end
$var wire 1 ^ B $end
$var wire 1 ] Y $end
$upscope $end
$scope module _110_ $end
$var wire 1 _ A $end
$var wire 1 ] B $end
$var wire 1 *" Y $end
$upscope $end
$scope module _111_ $end
$var wire 1 e A $end
$var wire 1 ?" B $end
$var wire 1 \ Y $end
$upscope $end
$scope module _112_ $end
$var wire 1 @" A $end
$var wire 1 \ B $end
$var wire 1 [ Y $end
$upscope $end
$scope module _113_ $end
$var wire 1 c A $end
$var wire 1 A" B $end
$var wire 1 Z Y $end
$upscope $end
$scope module _114_ $end
$var wire 1 [ A $end
$var wire 1 Z B $end
$var wire 1 Y Y $end
$upscope $end
$scope module _115_ $end
$var wire 1 B" A $end
$var wire 1 [ B $end
$var wire 1 X Y $end
$upscope $end
$scope module _116_ $end
$var wire 1 X A $end
$var wire 1 W Y $end
$upscope $end
$scope module _117_ $end
$var wire 1 Y A $end
$var wire 1 W B $end
$var wire 1 V Y $end
$upscope $end
$scope module _118_ $end
$var wire 1 V B $end
$var wire 1 +" Y $end
$var wire 1 $ A $end
$upscope $end
$scope module _119_ $end
$var wire 1 C" B $end
$var wire 1 U Y $end
$var wire 1 # A $end
$upscope $end
$scope module _120_ $end
$var wire 1 [ A $end
$var wire 1 U B $end
$var wire 1 T Y $end
$upscope $end
$scope module _121_ $end
$var wire 1 D" A $end
$var wire 1 [ B $end
$var wire 1 S Y $end
$upscope $end
$scope module _122_ $end
$var wire 1 S A $end
$var wire 1 R Y $end
$upscope $end
$scope module _123_ $end
$var wire 1 T A $end
$var wire 1 R B $end
$var wire 1 Q Y $end
$upscope $end
$scope module _124_ $end
$var wire 1 Q B $end
$var wire 1 ," Y $end
$var wire 1 $ A $end
$upscope $end
$scope module _125_ $end
$var wire 1 c A $end
$var wire 1 E" B $end
$var wire 1 P Y $end
$upscope $end
$scope module _126_ $end
$var wire 1 [ A $end
$var wire 1 P B $end
$var wire 1 O Y $end
$upscope $end
$scope module _127_ $end
$var wire 1 F" A $end
$var wire 1 [ B $end
$var wire 1 N Y $end
$upscope $end
$scope module _128_ $end
$var wire 1 N A $end
$var wire 1 M Y $end
$upscope $end
$scope module _129_ $end
$var wire 1 O A $end
$var wire 1 M B $end
$var wire 1 L Y $end
$upscope $end
$scope module _130_ $end
$var wire 1 L B $end
$var wire 1 -" Y $end
$var wire 1 $ A $end
$upscope $end
$scope module _131_ $end
$var wire 1 c A $end
$var wire 1 G" B $end
$var wire 1 K Y $end
$upscope $end
$scope module _132_ $end
$var wire 1 [ A $end
$var wire 1 K B $end
$var wire 1 J Y $end
$upscope $end
$scope module _133_ $end
$var wire 1 H" A $end
$var wire 1 [ B $end
$var wire 1 I Y $end
$upscope $end
$scope module _134_ $end
$var wire 1 I A $end
$var wire 1 H Y $end
$upscope $end
$scope module _135_ $end
$var wire 1 J A $end
$var wire 1 H B $end
$var wire 1 G Y $end
$upscope $end
$scope module _136_ $end
$var wire 1 G B $end
$var wire 1 ." Y $end
$var wire 1 $ A $end
$upscope $end
$scope module _137_ $end
$var wire 1 c A $end
$var wire 1 I" B $end
$var wire 1 F Y $end
$upscope $end
$scope module _138_ $end
$var wire 1 [ A $end
$var wire 1 F B $end
$var wire 1 E Y $end
$upscope $end
$scope module _139_ $end
$var wire 1 J" A $end
$var wire 1 [ B $end
$var wire 1 D Y $end
$upscope $end
$scope module _140_ $end
$var wire 1 D A $end
$var wire 1 C Y $end
$upscope $end
$scope module _141_ $end
$var wire 1 E A $end
$var wire 1 C B $end
$var wire 1 B Y $end
$upscope $end
$scope module _142_ $end
$var wire 1 B B $end
$var wire 1 /" Y $end
$var wire 1 $ A $end
$upscope $end
$scope module _143_ $end
$var wire 1 c A $end
$var wire 1 K" B $end
$var wire 1 A Y $end
$upscope $end
$scope module _144_ $end
$var wire 1 [ A $end
$var wire 1 A B $end
$var wire 1 @ Y $end
$upscope $end
$scope module _145_ $end
$var wire 1 L" A $end
$var wire 1 [ B $end
$var wire 1 ? Y $end
$upscope $end
$scope module _146_ $end
$var wire 1 ? A $end
$var wire 1 > Y $end
$upscope $end
$scope module _147_ $end
$var wire 1 @ A $end
$var wire 1 > B $end
$var wire 1 = Y $end
$upscope $end
$scope module _148_ $end
$var wire 1 = B $end
$var wire 1 0" Y $end
$var wire 1 $ A $end
$upscope $end
$scope module _149_ $end
$var wire 1 M" B $end
$var wire 1 < Y $end
$var wire 1 # A $end
$upscope $end
$scope module _150_ $end
$var wire 1 [ A $end
$var wire 1 < B $end
$var wire 1 ; Y $end
$upscope $end
$scope module _151_ $end
$var wire 1 N" A $end
$var wire 1 [ B $end
$var wire 1 : Y $end
$upscope $end
$scope module _152_ $end
$var wire 1 : A $end
$var wire 1 9 Y $end
$upscope $end
$scope module _153_ $end
$var wire 1 ; A $end
$var wire 1 9 B $end
$var wire 1 8 Y $end
$upscope $end
$scope module _154_ $end
$var wire 1 8 B $end
$var wire 1 1" Y $end
$var wire 1 $ A $end
$upscope $end
$scope module _155_ $end
$var wire 1 O" A $end
$var wire 1 7 Y $end
$var wire 1 # B $end
$upscope $end
$scope module _156_ $end
$var wire 1 [ A $end
$var wire 1 7 B $end
$var wire 1 6 Y $end
$upscope $end
$scope module _157_ $end
$var wire 1 P" A $end
$var wire 1 [ B $end
$var wire 1 5 Y $end
$upscope $end
$scope module _158_ $end
$var wire 1 5 A $end
$var wire 1 4 Y $end
$upscope $end
$scope module _159_ $end
$var wire 1 6 A $end
$var wire 1 4 B $end
$var wire 1 (" Y $end
$upscope $end
$scope module _160_ $end
$var wire 1 (" B $end
$var wire 1 2" Y $end
$var wire 1 $ A $end
$upscope $end
$scope module _161_ $end
$var wire 1 e A $end
$var wire 1 d B $end
$var wire 1 '" Y $end
$upscope $end
$scope module _162_ $end
$var wire 1 Q" A $end
$var wire 1 '" B $end
$var wire 1 &" Y $end
$upscope $end
$scope module _163_ $end
$var wire 1 R" A $end
$var wire 1 d B $end
$var wire 1 %" Y $end
$upscope $end
$scope module _164_ $end
$var wire 1 S" A $end
$var wire 1 %" B $end
$var wire 1 $" Y $end
$upscope $end
$scope module _165_ $end
$var wire 1 T" A $end
$var wire 1 \ B $end
$var wire 1 #" Y $end
$upscope $end
$scope module _166_ $end
$var wire 1 U" A $end
$var wire 1 b B $end
$var wire 1 "" Y $end
$upscope $end
$scope module _167_ $end
$var wire 1 $" A $end
$var wire 1 #" B $end
$var wire 1 !" Y $end
$upscope $end
$scope module _168_ $end
$var wire 1 &" A $end
$var wire 1 "" B $end
$var wire 1 ~ Y $end
$upscope $end
$scope module _169_ $end
$var wire 1 V" A $end
$var wire 1 ~ B $end
$var wire 1 } Y $end
$upscope $end
$scope module _170_ $end
$var wire 1 } A $end
$var wire 1 | Y $end
$upscope $end
$scope module _171_ $end
$var wire 1 !" A $end
$var wire 1 | B $end
$var wire 1 { Y $end
$upscope $end
$scope module _172_ $end
$var wire 1 \ B $end
$var wire 1 z Y $end
$var wire 1 1 A $end
$upscope $end
$scope module _173_ $end
$var wire 1 '" B $end
$var wire 1 y Y $end
$var wire 1 0 A $end
$upscope $end
$scope module _174_ $end
$var wire 1 W" A $end
$var wire 1 b B $end
$var wire 1 x Y $end
$upscope $end
$scope module _175_ $end
$var wire 1 X" A $end
$var wire 1 %" B $end
$var wire 1 w Y $end
$upscope $end
$scope module _176_ $end
$var wire 1 Y" A $end
$var wire 1 x B $end
$var wire 1 v Y $end
$upscope $end
$scope module _177_ $end
$var wire 1 y A $end
$var wire 1 w B $end
$var wire 1 u Y $end
$upscope $end
$scope module _178_ $end
$var wire 1 v A $end
$var wire 1 u B $end
$var wire 1 t Y $end
$upscope $end
$scope module _179_ $end
$var wire 1 z A $end
$var wire 1 t B $end
$var wire 1 s Y $end
$upscope $end
$scope module _180_ $end
$var wire 1 h A $end
$var wire 1 s B $end
$var wire 1 r Y $end
$upscope $end
$scope module _181_ $end
$var wire 1 { A $end
$var wire 1 r B $end
$var wire 1 3" Y $end
$upscope $end
$scope module _182_ $end
$var wire 1 f A $end
$var wire 1 '" B $end
$var wire 1 q Y $end
$upscope $end
$scope module _183_ $end
$var wire 1 f A $end
$var wire 1 '" B $end
$var wire 1 p Y $end
$upscope $end
$scope module _184_ $end
$var wire 1 p B $end
$var wire 1 o Y $end
$var wire 1 $ A $end
$upscope $end
$scope module _185_ $end
$var wire 1 q A $end
$var wire 1 o B $end
$var wire 1 4" Y $end
$upscope $end
$scope module _186_ $end
$var wire 1 b B $end
$var wire 1 n Y $end
$var wire 1 $ A $end
$upscope $end
$scope module _187_ $end
$var wire 1 n A $end
$var wire 1 m Y $end
$upscope $end
$scope module _188_ $end
$var wire 1 '" A $end
$var wire 1 m B $end
$var wire 1 5" Y $end
$upscope $end
$scope module _189_ $end
$var wire 1 Z" B $end
$var wire 1 6" Y $end
$var wire 1 $ A $end
$upscope $end
$scope module _190_ $end
$var wire 1 ` B $end
$var wire 1 l Y $end
$var wire 1 1 A $end
$upscope $end
$scope module _191_ $end
$var wire 1 i A $end
$var wire 1 ` B $end
$var wire 1 k Y $end
$upscope $end
$scope module _192_ $end
$var wire 1 h A $end
$var wire 1 k B $end
$var wire 1 j Y $end
$upscope $end
$scope module _193_ $end
$var wire 1 l A $end
$var wire 1 j B $end
$var wire 1 )" Y $end
$upscope $end
$scope module _194_ $end
$var wire 1 6" D $end
$var wire 1 ) C $end
$var reg 1 [" Q $end
$upscope $end
$scope module _195_ $end
$var wire 1 5" D $end
$var wire 1 ) C $end
$var reg 1 \" Q $end
$upscope $end
$scope module _196_ $end
$var wire 1 4" D $end
$var wire 1 ) C $end
$var reg 1 ]" Q $end
$upscope $end
$scope module _197_ $end
$var wire 1 3" D $end
$var wire 1 ) C $end
$var reg 1 % Q $end
$upscope $end
$scope module _198_ $end
$var wire 1 2" D $end
$var wire 1 ) C $end
$var reg 1 ^" Q $end
$upscope $end
$scope module _199_ $end
$var wire 1 1" D $end
$var wire 1 ) C $end
$var reg 1 _" Q $end
$upscope $end
$scope module _200_ $end
$var wire 1 0" D $end
$var wire 1 ) C $end
$var reg 1 `" Q $end
$upscope $end
$scope module _201_ $end
$var wire 1 /" D $end
$var wire 1 ) C $end
$var reg 1 a" Q $end
$upscope $end
$scope module _202_ $end
$var wire 1 ." D $end
$var wire 1 ) C $end
$var reg 1 b" Q $end
$upscope $end
$scope module _203_ $end
$var wire 1 -" D $end
$var wire 1 ) C $end
$var reg 1 c" Q $end
$upscope $end
$scope module _204_ $end
$var wire 1 ," D $end
$var wire 1 ) C $end
$var reg 1 d" Q $end
$upscope $end
$scope module _205_ $end
$var wire 1 +" D $end
$var wire 1 ) C $end
$var reg 1 e" Q $end
$upscope $end
$scope module _206_ $end
$var wire 1 *" D $end
$var wire 1 ) C $end
$var reg 1 0 Q $end
$upscope $end
$scope module _207_ $end
$var wire 1 )" D $end
$var wire 1 ) C $end
$var reg 1 1 Q $end
$upscope $end
$upscope $end
$scope module probador $end
$var wire 1 & data_out $end
$var wire 1 % data_out_estruct $end
$var reg 1 ) clk32_f $end
$var reg 1 ( clk4_f $end
$var reg 8 f" data_in [7:0] $end
$var reg 1 $ reset $end
$var reg 1 # valid_in $end
$upscope $end
$upscope $end
$scope module DFFSR $end
$var wire 1 g" C $end
$var wire 1 h" D $end
$var wire 1 i" R $end
$var wire 1 j" S $end
$var reg 1 k" Q $end
$upscope $end
$enddefinitions $end
#0
$dumpvars
xk"
zj"
zi"
zh"
zg"
b0 f"
0e"
0d"
0c"
0b"
0a"
0`"
0_"
0^"
1]"
0\"
0["
0Z"
1Y"
0X"
0W"
1V"
0U"
0T"
0S"
0R"
0Q"
0P"
0O"
0N"
0M"
0L"
0K"
0J"
0I"
0H"
0G"
0F"
0E"
0D"
0C"
0B"
0A"
1@"
0?"
1>"
0="
0<"
0;"
0:"
19"
08"
07"
06"
05"
14"
03"
02"
01"
00"
0/"
0."
0-"
0,"
0+"
0*"
0)"
1("
0'"
1&"
0%"
1$"
1#"
1""
0!"
0~
0}
1|
0{
1z
1y
1x
1w
0v
0u
1t
0s
1r
1q
1p
0o
0n
1m
1l
1k
1j
1i
0h
1g
0f
1e
1d
1c
1b
0a
0`
1_
1^
1]
0\
1[
0Z
0Y
1X
0W
1V
1U
0T
1S
0R
1Q
0P
0O
1N
0M
1L
0K
0J
1I
0H
1G
0F
0E
1D
0C
1B
0A
0@
1?
0>
1=
1<
0;
1:
09
18
17
06
15
04
b0 3
b0 2
01
00
b100 /
b100 .
0-
0,
b0 +
b0 *
1)
1(
b0 '
0&
0%
1$
0#
z"
z!
$end
#2
0)
#4
1)
#6
0)
#8
1)
#10
0)
#12
1Z
1P
1K
1F
1A
0c
1#
0]
0j
16"
1h
0$
1)
#14
0)
#16
15"
0m
1n
1a
1%"
06"
0b
0d
1Z"
1?"
1="
1;"
b101 .
b101 /
1["
1)
0(
#18
0)
#20
0[
1\
0%"
16"
0e
1d
1R"
1<"
1:"
0Z"
0?"
0="
0;"
1\"
b110 /
0["
b110 .
1)
#22
0)
#24
04"
1o
0p
05"
1[
1'"
06"
0\
0d
1Z"
1?"
1="
1;"
b111 .
b111 /
1["
1)
#26
0)
#28
0*"
1]
0)"
1j
0r
0_
0^
0l
0k
1s
1{
04"
1`
1m
05"
0t
0n
0|
1q
0a
0'"
1v
1}
16"
0\
1b
1f
1e
1d
0Y"
0V"
0@"
0>"
09"
0R"
0<"
0:"
0Z"
0?"
0="
0;"
0]"
0\"
b0 /
0["
b0 .
1)
#30
0)
#32
0]
0j
1_
1^
1l
1k
15"
0`
0m
1n
1a
1%"
06"
0b
07
0<
0A
0F
0K
0P
0U
0Z
0d
1Z"
1?"
1="
1;"
1O"
1M"
1K"
1I"
1G"
1E"
1C"
1A"
b1 .
b1 /
1["
b11111111 '
b11111111 *
b11111111 2
b11111111 f"
1)
1(
#34
0)
#36
1\
0%"
16"
0e
1d
1R"
1<"
1:"
0Z"
0?"
0="
0;"
1\"
b10 /
0["
b10 .
1)
#38
0)
#40
14"
0q
05"
1'"
06"
0\
0d
1Z"
1?"
1="
1;"
b11 .
b11 /
1["
1)
#42
0)
#44
0+"
0,"
0-"
0."
0/"
00"
01"
02"
1r
1V
1Q
1L
1G
1B
1=
18
1("
03"
0o
0s
0Y
0T
0O
0J
0E
0@
0;
06
0{
14"
1m
1p
05"
1t
1[
0n
1|
1q
0a
0'"
0v
0}
16"
0\
1b
0f
1e
1d
1Y"
1V"
1@"
1>"
19"
0R"
0<"
0:"
0Z"
0?"
0="
0;"
1]"
0\"
b100 /
0["
b100 .
1)
#46
0)
#48
15"
0m
1n
1a
1%"
06"
0b
0d
1Z"
1?"
1="
1;"
b101 .
b101 /
1["
1)
0(
#50
0)
#52
1+"
1,"
1-"
1."
1/"
10"
11"
12"
0V
0Q
0L
0G
0B
0=
08
0("
1Y
1T
1O
1J
1E
1@
1;
16
0[
1\
0%"
16"
0e
1d
1R"
1<"
1:"
0Z"
0?"
0="
0;"
1\"
b110 /
0["
b110 .
1)
#54
0)
#56
04"
1W
1R
1M
1H
1C
1>
19
14
1~
1o
0Y
0X
0T
0S
0O
0N
0J
0I
0E
0D
0@
0?
0;
0:
06
05
0&"
0p
05"
1[
0!"
1'"
06"
0\
1#"
0d
0g
0i
1Z"
1?"
1="
1;"
1P"
18"
1N"
17"
1X"
1L"
1W"
1J"
1Q"
1H"
1T"
1F"
1S"
1D"
1U"
1B"
b11111111 +
b111 .
b111 /
1["
1^"
1_"
1`"
1a"
1b"
1c"
1d"
b11111111 3
1e"
1)
#58
0)
#60
13"
1*"
1)"
0r
0_
0l
1s
0!"
04"
1`
1m
1&"
05"
0t
1#"
0""
0x
0n
1q
0a
0'"
1v
16"
0\
1b
1f
1e
1d
0Y"
0V"
0@"
0>"
09"
0R"
0<"
0:"
0Z"
0?"
0="
0;"
0]"
0\"
b0 /
0["
b0 .
1)
#62
0)
#64
0|
1}
15"
1!"
1u
0~
0`
0m
0$"
0w
1""
1x
1n
1a
1%"
06"
0b
17
1A
1K
1U
0d
1Z"
1?"
1="
1;"
0O"
0K"
0G"
0C"
1,
1-
b1 .
1&
b1 /
1["
1%
10
11
b10101010 '
b10101010 *
b10101010 2
b10101010 f"
1)
1(
#66
0)
#68
0u
0#"
0z
1$"
1w
1\
0%"
16"
0e
1d
1R"
1<"
1:"
0Z"
0?"
0="
0;"
1\"
b10 /
0["
b10 .
1)
#70
0)
#72
13"
1|
0}
0{
1~
1u
14"
0!"
0&"
0y
0q
05"
1#"
1z
1'"
06"
0\
0d
1Z"
1?"
1="
1;"
b11 .
b11 /
1["
1)
#74
0)
#76
1,"
1."
10"
12"
0Q
0G
0=
0("
1W
1R
1M
1H
1C
1>
19
14
0u
0o
0Y
0X
0S
0O
0N
0I
0E
0D
0?
0;
0:
05
0!"
14"
1m
1&"
1y
1p
05"
1[
1#"
1z
0""
0x
0n
1q
0a
0'"
1v
16"
0\
1b
0f
1e
1d
1Y"
1V"
1@"
1>"
19"
0R"
0<"
0:"
0Z"
0?"
0="
0;"
1]"
0\"
b100 /
0["
b100 .
1)
#78
0)
#80
15"
1!"
1u
0~
0v
0m
0$"
0w
1""
1x
1n
1a
1%"
06"
0b
0d
1Z"
1?"
1="
1;"
b101 .
b101 /
1["
1)
0(
#82
0)
#84
0,"
0."
00"
02"
1Q
1G
1=
1("
1t
0W
0R
0M
0H
0C
0>
09
04
1Y
1X
1S
1O
1N
1I
1E
1D
1?
1;
1:
15
0u
0[
0#"
0z
1$"
1w
1\
0%"
16"
0e
1d
1R"
1<"
1:"
0Z"
0?"
0="
0;"
1\"
b110 /
0["
b110 .
1)
#86
0)
#88
13"
0t
04"
0r
1W
1M
1C
19
1u
1o
0Y
0X
0O
0N
0E
0D
0;
0:
0!"
1s
0y
0p
05"
1[
1#"
1z
1'"
06"
0\
0d
1g
1Z"
1?"
1="
1;"
0P"
08"
0X"
0L"
0Q"
0H"
0S"
0D"
b10101010 +
b111 .
b111 /
1["
0^"
0`"
0b"
b10101010 3
0d"
1)
#90
0)
#92
0*"
1]
13"
0^
0u
0!"
1~
0{
04"
1`
1m
1y
05"
1#"
1z
0""
0x
0n
1|
1q
0a
0'"
1v
0}
16"
0\
1b
1f
1e
1d
0Y"
0V"
0@"
0>"
09"
0R"
0<"
0:"
0Z"
0?"
0="
0;"
0]"
0\"
b0 /
0["
b0 .
1)
#94
0)
#96
03"
1{
0]
0|
1}
1_
1^
15"
0~
0`
0m
1""
1x
1n
1a
1%"
06"
0b
07
1<
0A
1F
1Z
0d
1Z"
1?"
1="
1;"
1O"
0M"
1K"
0I"
0A"
0-
b1 .
b1 /
1["
00
b100101 '
b100101 *
b100101 2
b100101 f"
1)
1(
#98
0)
#100
13"
0{
1!"
0#"
0z
1\
0%"
16"
0e
1d
1R"
1<"
1:"
0Z"
0?"
0="
0;"
0%
1\"
b10 /
0["
b10 .
0&
1)
#102
0)
#104
03"
1{
14"
0!"
0q
05"
1#"
1z
1'"
06"
0\
0d
1Z"
1?"
1="
1;"
b11 .
1&
b11 /
1["
1%
1)
#106
0)
#108
1+"
1/"
11"
00"
02"
0r
0V
0B
08
1=
1("
13"
1s
1W
1M
1C
19
0o
0X
0O
0N
0D
0@
0:
06
0!"
1~
0{
14"
1m
1p
05"
0t
1[
1#"
1z
0""
0x
0n
1|
1q
0a
0'"
1v
0}
16"
0\
1b
0f
1e
1d
1Y"
1V"
1@"
1>"
19"
0R"
0<"
0:"
0Z"
0?"
0="
0;"
0%
1]"
0\"
b100 /
0["
b100 .
0&
1)
#110
0)
#112
03"
1r
0s
1t
15"
0~
0v
0m
1""
1x
1n
1a
1%"
06"
0b
0d
1Z"
1?"
1="
1;"
b101 .
1&
b101 /
1["
1%
1)
0(
#114
0)
#116
0+"
0/"
01"
10"
12"
13"
1V
1B
18
0=
0("
0r
0W
0M
0C
09
1X
1O
1N
1D
1@
1:
16
1!"
1s
0[
0#"
0z
1\
0%"
16"
0e
1d
1R"
1<"
1:"
0Z"
0?"
0="
0;"
0%
1\"
b110 /
0["
b110 .
0&
1)
#118
0)
#120
03"
04"
1r
1M
1>
14
1o
0O
0N
0@
0?
06
05
0!"
0s
0p
05"
1[
1#"
1z
1'"
06"
0\
0d
0g
1i
1Z"
1?"
1="
1;"
1P"
18"
0N"
07"
1X"
1L"
0W"
0J"
0U"
0B"
b100101 +
b111 .
1&
b111 /
1["
1%
1^"
0_"
1`"
0a"
b100101 3
0e"
1)
#122
0)
#124
0)"
03"
1*"
1j
0r
0_
0k
0!"
1s
1{
04"
1`
1m
05"
0t
1#"
1z
0n
0|
1q
0a
0'"
1v
1}
16"
0\
1b
1f
1e
1d
0Y"
0V"
0@"
0>"
09"
0R"
0<"
0:"
0Z"
0?"
0="
0;"
0%
0]"
0\"
b0 /
0["
b0 .
0&
1)
#126
0)
#128
0j
1l
1k
15"
1u
0`
0m
0w
1n
1a
1%"
06"
0b
0K
0F
0Z
0d
17
1Z"
1?"
1="
1;"
1c
0O"
1M"
1I"
1C"
1A"
0,
1-
b1 .
b1 /
1["
10
01
0#
b11101110 '
b11101110 *
b11101110 2
b11101110 f"
1)
1(
#130
0)
#132
13"
0{
1!"
0u
0#"
1w
1\
0%"
16"
0e
1d
1R"
1<"
1:"
0Z"
0?"
0="
0;"
1\"
b10 /
0["
b10 .
1)
#134
0)
#136
03"
1{
1u
14"
0!"
0y
0q
05"
1#"
1'"
06"
0\
0d
1Z"
1?"
1="
1;"
b11 .
1&
b11 /
1["
1%
1)
#138
0)
#140
1r
12"
0s
0+"
0."
0/"
0("
1t
1V
1G
1B
03"
1M
1>
14
0u
0o
0Y
0O
0N
0J
0E
0@
0?
05
0!"
0{
14"
1m
1y
1p
05"
1[
1#"
0n
1|
1q
0a
0'"
0v
0}
16"
0\
1b
0f
1e
1d
1Y"
1V"
1@"
1>"
19"
0R"
0<"
0:"
0Z"
0?"
0="
0;"
0%
1]"
0\"
b100 /
0["
b100 .
0&
1)
#142
0)
#144
13"
0r
1s
0t
15"
1u
0m
0w
1n
1a
1%"
06"
0b
0d
1Z"
1?"
1="
1;"
b101 .
b101 /
1["
1)
0(
#146
0)
#148
03"
1r
02"
1+"
1."
1/"
0s
1("
0V
0G
0B
1t
0M
0>
04
1Y
1O
1N
1J
1E
1@
1?
15
1!"
0u
0[
0#"
1w
1\
0%"
16"
0e
1d
1R"
1<"
1:"
0Z"
0?"
0="
0;"
1%
1\"
b110 /
0["
b110 .
1&
1)
#150
0)
#152
13"
0r
1s
0t
04"
1W
1M
1H
1C
1>
1~
1u
1o
0Y
0X
0O
0N
0J
0I
0E
0D
0@
0?
0!"
0&"
0y
0p
05"
1[
1#"
1'"
06"
0\
0d
1g
1Z"
1?"
1="
1;"
0P"
08"
1W"
1J"
1Q"
1H"
1U"
1B"
b10111100 +
b111 .
0&
b111 /
1["
0%
0^"
1a"
1b"
b10111100 3
1e"
1)
#154
0)
#156
0*"
1]
0)"
1j
0^
0l
0k
0u
0!"
04"
1`
1m
1&"
1y
05"
1#"
0""
0x
0n
1q
0a
0'"
1v
16"
0\
1b
1f
1e
1d
0Y"
0V"
0@"
0>"
09"
0R"
0<"
0:"
0Z"
0?"
0="
0;"
1%
0]"
0\"
b0 /
0["
b0 .
1&
1)
#158
0)
#160
03"
1{
0]
0j
0|
1}
1_
1^
1l
1k
15"
1u
0~
0`
0m
0w
1""
1x
1n
1a
1%"
06"
0b
0d
1Z"
1?"
1="
1;"
1O"
0M"
0K"
0I"
1G"
0E"
0C"
0A"
0-
b1 .
b1 /
1["
00
b10001 '
b10001 *
b10001 2
b10001 f"
1)
1(
#162
0)
#164
13"
0{
1!"
0u
0#"
1w
1\
0%"
16"
0e
1d
1R"
1<"
1:"
0Z"
0?"
0="
0;"
0%
1\"
b10 /
0["
b10 .
0&
1)
#166
0)
#168
13"
1|
0}
0{
1~
14"
0!"
0&"
0q
05"
1#"
1'"
06"
0\
0d
1Z"
1?"
1="
1;"
b11 .
1&
b11 /
1["
1%
1)
#170
0)
#172
13"
0r
1W
1M
1H
1C
1>
0o
1s
0Y
0X
0O
0N
0J
0I
0E
0D
0@
0?
0!"
14"
1m
1&"
1p
05"
0t
1[
1#"
0""
0x
0n
1q
0a
0'"
1v
16"
0\
1b
0f
1e
1d
1Y"
1V"
1@"
1>"
19"
0R"
0<"
0:"
0Z"
0?"
0="
0;"
1]"
0\"
b100 /
0["
b100 .
1)
