ParaleloSerial-verde/ParaleloSerial_verde.vcd
$date
	Fri Jun  4 20:13:42 2021
$end
$version
	Icarus Verilog
$end
$timescale
	1s
$end
$scope module BUF $end
$var wire 1 ! A $end
$var wire 1 " Y $end
$upscope $end
$scope module BancoPruebasParaleloSerial_verde $end
$var wire 1 # valid_in $end
$var wire 1 $ reset $end
$var wire 1 % data_out_estruct $end
$var wire 1 & data_out $end
$var wire 1 ' clk4_f $end
$var wire 1 ( clk32_f $end
$scope module conductual $end
$var wire 1 # valid_in $end
$var wire 1 $ reset $end
$var wire 1 ' clk4_f $end
$var wire 1 ( clk32_f $end
$var reg 1 & data_out $end
$var reg 3 ) selector [2:0] $end
$upscope $end
$scope module estructural $end
$var wire 1 # valid_in $end
$var wire 3 * selector [2:0] $end
$var wire 1 $ reset $end
$var wire 1 % data_out_estruct $end
$var wire 1 ' clk4_f $end
$var wire 1 ( clk32_f $end
$var wire 1 + _17_ $end
$var wire 1 , _16_ $end
$var wire 1 - _15_ $end
$var wire 1 . _14_ $end
$var wire 1 / _13_ $end
$var wire 1 0 _12_ $end
$var wire 1 1 _11_ $end
$var wire 1 2 _10_ $end
$var wire 1 3 _09_ $end
$var wire 1 4 _08_ $end
$var wire 1 5 _07_ $end
$var wire 1 6 _06_ $end
$var wire 1 7 _05_ $end
$var wire 1 8 _04_ $end
$var wire 1 9 _03_ $end
$var wire 1 : _02_ $end
$var wire 1 ; _01_ $end
$var wire 1 < _00_ $end
$scope module _18_ $end
$var wire 1 8 Y $end
$var wire 1 $ A $end
$upscope $end
$scope module _19_ $end
$var wire 1 = A $end
$var wire 1 7 Y $end
$upscope $end
$scope module _20_ $end
$var wire 1 > A $end
$var wire 1 ? B $end
$var wire 1 6 Y $end
$upscope $end
$scope module _21_ $end
$var wire 1 @ A $end
$var wire 1 6 B $end
$var wire 1 5 Y $end
$upscope $end
$scope module _22_ $end
$var wire 1 A A $end
$var wire 1 6 B $end
$var wire 1 4 Y $end
$upscope $end
$scope module _23_ $end
$var wire 1 5 B $end
$var wire 1 3 Y $end
$var wire 1 $ A $end
$upscope $end
$scope module _24_ $end
$var wire 1 4 A $end
$var wire 1 3 B $end
$var wire 1 : Y $end
$upscope $end
$scope module _25_ $end
$var wire 1 B A $end
$var wire 1 7 B $end
$var wire 1 2 Y $end
$upscope $end
$scope module _26_ $end
$var wire 1 C A $end
$var wire 1 7 B $end
$var wire 1 1 Y $end
$upscope $end
$scope module _27_ $end
$var wire 1 1 B $end
$var wire 1 0 Y $end
$var wire 1 $ A $end
$upscope $end
$scope module _28_ $end
$var wire 1 2 A $end
$var wire 1 0 B $end
$var wire 1 ; Y $end
$upscope $end
$scope module _29_ $end
$var wire 1 D B $end
$var wire 1 < Y $end
$var wire 1 $ A $end
$upscope $end
$scope module _30_ $end
$var wire 1 E A $end
$var wire 1 / Y $end
$var wire 1 # B $end
$upscope $end
$scope module _31_ $end
$var wire 1 / A $end
$var wire 1 . Y $end
$upscope $end
$scope module _32_ $end
$var wire 1 2 A $end
$var wire 1 . B $end
$var wire 1 - Y $end
$upscope $end
$scope module _33_ $end
$var wire 1 F A $end
$var wire 1 G B $end
$var wire 1 , Y $end
$upscope $end
$scope module _34_ $end
$var wire 1 8 A $end
$var wire 1 , B $end
$var wire 1 + Y $end
$upscope $end
$scope module _35_ $end
$var wire 1 - A $end
$var wire 1 + B $end
$var wire 1 9 Y $end
$upscope $end
$scope module _36_ $end
$var wire 1 < D $end
$var wire 1 ( C $end
$var reg 1 H Q $end
$upscope $end
$scope module _37_ $end
$var wire 1 ; D $end
$var wire 1 ( C $end
$var reg 1 I Q $end
$upscope $end
$scope module _38_ $end
$var wire 1 : D $end
$var wire 1 ( C $end
$var reg 1 J Q $end
$upscope $end
$scope module _39_ $end
$var wire 1 9 D $end
$var wire 1 ( C $end
$var reg 1 % Q $end
$upscope $end
$upscope $end
$scope module probador $end
$var wire 1 & data_out $end
$var wire 1 % data_out_estruct $end
$var reg 1 ( clk32_f $end
$var reg 1 ' clk4_f $end
$var reg 1 $ reset $end
$var reg 1 # valid_in $end
$upscope $end
$upscope $end
$scope module DFFSR $end
$var wire 1 K C $end
$var wire 1 L D $end
$var wire 1 M R $end
$var wire 1 N S $end
$var reg 1 O Q $end
$upscope $end
$enddefinitions $end
#0
$dumpvars
xO
zN
zM
zL
zK
1J
1I
0H
1G
1F
1E
0D
0C
0B
1A
1@
1?
0>
1=
0<
1;
1:
09
08
07
16
05
04
03
12
11
00
0/
1.
0-
0,
1+
b110 *
b110 )
1(
1'
0&
0%
1$
0#
z"
z!
$end
#2
0(
#4
1(
#6
0(
#8
1(
#10
0(
#12
1(
#14
0(
#16
1(
0'
#18
0(
#20
1<
13
18
0$
1(
#22
0(
#24
0;
0:
10
14
0<
01
06
1D
1C
1B
1>
b111 )
b111 *
1H
1(
#26
0(
#28
0:
19
0;
13
0+
10
0.
1/
05
1,
1<
01
16
17
0F
0E
0A
0@
0G
0?
0=
0D
0C
0B
0>
0J
0I
b0 *
0H
b0 )
1(
#30
0(
#32
1;
0<
02
1D
1C
1B
1>
b1 )
1&
b1 *
1H
1%
1.
0/
1#
1(
1'
#34
0(
#36
00
1;
11
1<
12
07
1G
1?
1=
0D
0C
0B
0>
1I
b10 *
0H
b10 )
1(
#38
0(
#40
1:
0;
03
10
15
0<
01
06
1D
1C
1B
1>
b11 )
b11 *
1H
1(
#42
0(
#44
0;
13
10
04
05
1<
01
16
17
1F
1E
1A
1@
0G
0?
0=
0D
0C
0B
0>
1J
0I
b100 *
0H
b100 )
1(
#46
0(
#48
1;
0<
02
1D
1C
1B
1>
b101 )
b101 *
1H
1(
0'
#50
0(
#52
09
00
1+
1;
11
0,
1<
12
07
1G
1?
1=
0D
0C
0B
0>
1I
b110 *
0H
b110 )
1(
#54
0(
#56
0;
0:
10
14
0<
01
06
1D
1C
1B
1>
b111 )
0&
b111 *
1H
0%
1(
#58
0(
#60
0:
19
0;
13
0+
10
05
1,
1<
01
16
17
0F
0E
0A
0@
0G
0?
0=
0D
0C
0B
0>
0J
0I
b0 *
0H
b0 )
1(
#62
0(
#64
1;
0<
02
1D
1C
1B
1>
b1 )
1&
b1 *
1H
1%
1(
1'
#66
0(
#68
00
1;
11
1<
12
07
1G
1?
1=
0D
0C
0B
0>
1I
b10 *
0H
b10 )
1(
#70
0(
#72
1:
0;
03
10
15
0<
01
06
1D
1C
1B
1>
b11 )
b11 *
1H
1(
#74
0(
#76
0;
13
10
04
05
1<
01
16
17
1F
1E
1A
1@
0G
0?
0=
0D
0C
0B
0>
1J
0I
b100 *
0H
b100 )
1(
#78
0(
#80
1;
0<
02
1D
1C
1B
1>
b101 )
b101 *
1H
1(
0'
#82
0(
#84
09
00
1+
1;
11
0,
1<
12
07
1G
1?
1=
0D
0C
0B
0>
1I
b110 *
0H
b110 )
1(
#86
0(
#88
0;
0:
10
14
0<
01
06
1D
1C
1B
1>
b111 )
0&
b111 *
1H
0%
1(
#90
0(
#92
0:
19
0;
13
0+
10
05
1,
1<
01
16
17
0F
0E
0A
0@
0G
0?
0=
0D
0C
0B
0>
0J
0I
b0 *
0H
b0 )
1(
#94
0(
#96
09
1;
1-
0<
02
1D
1C
1B
1>
b1 )
1&
b1 *
1H
1%
0.
1/
0#
1(
1'
#98
0(
#100
19
00
1;
0-
11
1<
12
07
1G
1?
1=
0D
0C
0B
0>
0%
1I
b10 *
0H
b10 )
0&
1(
#102
0(
#104
1:
0;
03
10
15
0<
01
06
1D
1C
1B
1>
b11 )
1&
b11 *
1H
1%
1(
#106
0(
#108
0;
13
10
04
1.
0/
05
1<
01
16
17
1F
1E
1A
1@
0G
0?
0=
0D
0C
0B
0>
1J
0I
b100 *
0H
b100 )
1(
#110
0(
#112
1;
0<
02
1D
1C
1B
1>
b101 )
b101 *
1H
1(
0'
#114
0(
#116
09
00
1+
1;
11
0,
1<
12
07
1G
1?
1=
0D
0C
0B
0>
1I
b110 *
0H
b110 )
1(
#118
0(
#120
0;
0:
10
14
0<
01
06
1D
1C
1B
1>
b111 )
0&
b111 *
1H
0%
1(
#122
0(
#124
0:
19
0;
13
0+
10
0.
1/
05
1,
1<
01
16
17
0F
0E
0A
0@
0G
0?
0=
0D
0C
0B
0>
0J
0I
b0 *
0H
b0 )
1(
#126
0(
#128
09
1;
1-
0<
02
1D
1C
1B
1>
b1 )
1&
b1 *
1H
1%
1(
1'
#130
0(
#132
19
00
1;
0-
11
1<
12
07
1G
1?
1=
0D
0C
0B
0>
0%
1I
b10 *
0H
b10 )
0&
1(
#134
0(
#136
1:
0;
03
10
15
0<
01
06
1D
1C
1B
1>
b11 )
1&
b11 *
1H
1%
1(
#138
0(
#140
0;
13
10
04
1.
0/
05
1<
01
16
17
1F
1E
1A
1@
0G
0?
0=
0D
0C
0B
0>
1J
0I
b100 *
0H
b100 )
1(
#142
0(
#144
1;
0<
02
1D
1C
1B
1>
b101 )
b101 *
1H
1(
0'
#146
0(
#148
09
00
1+
1;
11
0,
1<
12
07
1G
1?
1=
0D
0C
0B
0>
1I
b110 *
0H
b110 )
1(
#150
0(
#152
0;
0:
10
14
0<
01
06
1D
1C
1B
1>
b111 )
0&
b111 *
1H
0%
1(
#154
0(
#156
0:
19
0;
13
0+
10
0.
1/
05
1,
1<
01
16
17
0F
0E
0A
0@
0G
0?
0=
0D
0C
0B
0>
0J
0I
b0 *
0H
b0 )
1(
#158
0(
#160
1;
0<
02
1D
1C
1B
1>
b1 )
1&
b1 *
1H
1%
1.
0/
1#
1(
1'
#162
0(
#164
00
1;
11
1<
12
07
1G
1?
1=
0D
0C
0B
0>
1I
b10 *
0H
b10 )
1(
#166
0(
#168
1:
0;
03
10
15
0<
01
06
1D
1C
1B
1>
b11 )
b11 *
1H
1(
#170
0(
#172
0;
13
10
04
05
1<
01
16
17
1F
1E
1A
1@
0G
0?
0=
0D
0C
0B
0>
1J
0I
b100 *
0H
b100 )
1(
#174
0(
#176
1;
0<
02
1D
1C
1B
1>
b101 )
b101 *
1H
1(
0'
#178
0(
#180
09
00
1+
1;
11
0,
1<
12
07
1G
1?
1=
0D
0C
0B
0>
1I
b110 *
0H
b110 )
1(
#182
0(
#184
0;
0:
10
14
0<
01
06
1D
1C
1B
1>
b111 )
0&
b111 *
1H
0%
1(
#186
0(
#188
0:
19
0;
13
0+
10
05
1,
1<
01
16
17
0F
0E
0A
0@
0G
0?
0=
0D
0C
0B
0>
0J
0I
b0 *
0H
b0 )
1(
#190
0(
#192
09
1;
1-
0<
02
1D
1C
1B
1>
b1 )
1&
b1 *
1H
1%
0.
1/
0#
1(
1'
#194
0(
#196
19
00
1;
0-
11
1<
12
07
1G
1?
1=
0D
0C
0B
0>
0%
1I
b10 *
0H
b10 )
0&
1(
#198
0(
#200
1:
0;
03
10
15
0<
01
06
1D
1C
1B
1>
b11 )
1&
b11 *
1H
1%
1(
#202
0(
#204
0;
13
10
04
1.
0/
05
1<
01
16
17
1F
1E
1A
1@
0G
0?
0=
0D
0C
0B
0>
1J
0I
b100 *
0H
b100 )
1(
#206
0(
#208
1;
0<
02
1D
1C
1B
1>
b101 )
b101 *
1H
1(
0'
#210
0(
#212
09
00
1+
1;
11
0,
1<
12
07
1G
1?
1=
0D
0C
0B
0>
1I
b110 *
0H
b110 )
1(
#214
0(
#216
0;
0:
10
14
0<
01
06
1D
1C
1B
1>
b111 )
0&
b111 *
1H
0%
1(
#218
0(
#220
0:
19
0;
13
0+
10
0.
1/
05
1,
1<
01
16
17
0F
0E
0A
0@
0G
0?
0=
0D
0C
0B
0>
0J
0I
b0 *
0H
b0 )
1(
#222
0(
#224
09
1;
1-
0<
02
1D
1C
1B
1>
b1 )
1&
b1 *
1H
1%
1(
1'
#226
0(
#228
19
00
1;
0-
11
1<
12
07
1G
1?
1=
0D
0C
0B
0>
0%
1I
b10 *
0H
b10 )
0&
1(
#230
0(
#232
1:
0;
03
10
15
0<
01
06
1D
1C
1B
1>
b11 )
1&
b11 *
1H
1%
1(
#234
0(
#236
0;
13
10
04
1.
0/
05
1<
01
16
17
1F
1E
1A
1@
0G
0?
0=
0D
0C
0B
0>
1J
0I
b100 *
0H
b100 )
1(
#238
0(
#240
1;
0<
02
1D
1C
1B
1>
b101 )
b101 *
1H
1(
0'
#242
0(
#244
09
00
1+
1;
11
0,
1<
12
07
1G
1?
1=
0D
0C
0B
0>
1I
b110 *
0H
b110 )
1(
#246
0(
#248
0;
0:
10
14
0<
01
06
1D
1C
1B
1>
b111 )
0&
b111 *
1H
0%
1(
#250
0(
#252
0:
19
0;
13
0+
10
0.
1/
05
1,
1<
01
16
17
0F
0E
0A
0@
0G
0?
0=
0D
0C
0B
0>
0J
0I
b0 *
0H
b0 )
1(
#254
0(
#256
09
1;
1-
0<
02
1D
1C
1B
1>
b1 )
1&
b1 *
1H
1%
1(
1'
