SerialParalelo-azul/SerialParalelo_IDL.vcd
$date
	Fri Jun  4 18:25:51 2021
$end
$version
	Icarus Verilog
$end
$timescale
	1s
$end
$scope module BUF $end
$var wire 1 ! A $end
$var wire 1 " Y $end
$upscope $end
$scope module BancoPruebas_ParaleloSerial_IDL $end
$var wire 1 # reset $end
$var wire 1 $ clk_4f $end
$var wire 1 % clk_32f $end
$var wire 1 & active $end
$var wire 1 ' IDL_estruct $end
$var wire 1 ( IDL $end
$scope module conductual $end
$var wire 1 # reset $end
$var wire 1 $ clk_4f $end
$var wire 1 % clk_32f $end
$var wire 1 & active $end
$var reg 1 ( IDL $end
$var reg 3 ) selector [2:0] $end
$upscope $end
$scope module estructural $end
$var wire 3 * selector [2:0] $end
$var wire 1 # reset $end
$var wire 1 $ clk_4f $end
$var wire 1 % clk_32f $end
$var wire 1 & active $end
$var wire 1 + _21_ $end
$var wire 1 , _20_ $end
$var wire 1 - _19_ $end
$var wire 1 . _18_ $end
$var wire 1 / _17_ $end
$var wire 1 0 _16_ $end
$var wire 1 1 _15_ $end
$var wire 1 2 _14_ $end
$var wire 1 3 _13_ $end
$var wire 1 4 _12_ $end
$var wire 1 5 _11_ $end
$var wire 1 6 _10_ $end
$var wire 1 7 _09_ $end
$var wire 1 8 _08_ $end
$var wire 1 9 _07_ $end
$var wire 1 : _06_ $end
$var wire 1 ; _05_ $end
$var wire 1 < _04_ $end
$var wire 1 = _03_ $end
$var wire 1 > _02_ $end
$var wire 1 ? _01_ $end
$var wire 1 @ _00_ $end
$var reg 1 ' IDL_estruct $end
$scope module _22_ $end
$var wire 1 < Y $end
$var wire 1 # A $end
$upscope $end
$scope module _23_ $end
$var wire 1 A A $end
$var wire 1 B B $end
$var wire 1 ; Y $end
$upscope $end
$scope module _24_ $end
$var wire 1 C A $end
$var wire 1 D B $end
$var wire 1 : Y $end
$upscope $end
$scope module _25_ $end
$var wire 1 : A $end
$var wire 1 9 Y $end
$upscope $end
$scope module _26_ $end
$var wire 1 ; A $end
$var wire 1 9 B $end
$var wire 1 8 Y $end
$upscope $end
$scope module _27_ $end
$var wire 1 < A $end
$var wire 1 8 B $end
$var wire 1 > Y $end
$upscope $end
$scope module _28_ $end
$var wire 1 < A $end
$var wire 1 E B $end
$var wire 1 ? Y $end
$upscope $end
$scope module _29_ $end
$var wire 1 F A $end
$var wire 1 7 Y $end
$var wire 1 & B $end
$upscope $end
$scope module _30_ $end
$var wire 1 7 A $end
$var wire 1 6 Y $end
$upscope $end
$scope module _31_ $end
$var wire 1 G A $end
$var wire 1 H B $end
$var wire 1 5 Y $end
$upscope $end
$scope module _32_ $end
$var wire 1 I A $end
$var wire 1 4 Y $end
$var wire 1 & B $end
$upscope $end
$scope module _33_ $end
$var wire 1 4 A $end
$var wire 1 3 Y $end
$upscope $end
$scope module _34_ $end
$var wire 1 5 A $end
$var wire 1 3 B $end
$var wire 1 2 Y $end
$upscope $end
$scope module _35_ $end
$var wire 1 6 A $end
$var wire 1 2 B $end
$var wire 1 1 Y $end
$upscope $end
$scope module _36_ $end
$var wire 1 J A $end
$var wire 1 K B $end
$var wire 1 0 Y $end
$upscope $end
$scope module _37_ $end
$var wire 1 < A $end
$var wire 1 0 B $end
$var wire 1 / Y $end
$upscope $end
$scope module _38_ $end
$var wire 1 1 A $end
$var wire 1 / B $end
$var wire 1 @ Y $end
$upscope $end
$scope module _39_ $end
$var wire 1 L A $end
$var wire 1 ; B $end
$var wire 1 . Y $end
$upscope $end
$scope module _40_ $end
$var wire 1 M A $end
$var wire 1 ; B $end
$var wire 1 - Y $end
$upscope $end
$scope module _41_ $end
$var wire 1 - A $end
$var wire 1 , Y $end
$upscope $end
$scope module _42_ $end
$var wire 1 . A $end
$var wire 1 , B $end
$var wire 1 + Y $end
$upscope $end
$scope module _43_ $end
$var wire 1 < A $end
$var wire 1 + B $end
$var wire 1 = Y $end
$upscope $end
$scope module _44_ $end
$var wire 1 ? D $end
$var wire 1 % C $end
$var reg 1 N Q $end
$upscope $end
$scope module _45_ $end
$var wire 1 > D $end
$var wire 1 % C $end
$var reg 1 O Q $end
$upscope $end
$scope module _46_ $end
$var wire 1 = D $end
$var wire 1 % C $end
$var reg 1 P Q $end
$upscope $end
$upscope $end
$scope module probador $end
$var wire 1 ( IDL $end
$var wire 1 ' IDL_estruct $end
$var reg 1 & active $end
$var reg 1 % clk_32f $end
$var reg 1 $ clk_4f $end
$var reg 1 # reset $end
$upscope $end
$upscope $end
$scope module DFFSR $end
$var wire 1 Q C $end
$var wire 1 R D $end
$var wire 1 S R $end
$var wire 1 T S $end
$var reg 1 U Q $end
$upscope $end
$enddefinitions $end
#0
$dumpvars
xU
zT
zS
zR
zQ
1P
1O
1N
1M
1L
1K
1J
1I
1H
1G
1F
1E
1D
1C
1B
1A
0@
1?
1>
1=
0<
0;
0:
19
18
17
06
05
04
13
12
01
00
1/
0.
1-
0,
1+
b111 *
b111 )
0(
0'
0&
1%
0$
1#
z"
z!
$end
#8
0%
#16
1%
#24
0%
#32
1%
#40
0%
#48
0>
0?
0=
1<
0#
1%
#56
0%
#64
1'
0>
0=
1@
01
18
1+
0/
12
03
09
14
1?
1:
1;
0.
10
15
1(
0I
0F
0E
0C
0A
0K
0H
0D
0B
0M
0L
0J
0G
b0 )
0N
0O
b0 *
0P
1%
1$
#72
0%
#80
0'
0@
11
1>
02
08
13
19
04
0?
0:
1I
1F
1E
1C
1A
0(
b1 *
1N
b1 )
1%
#88
0%
#96
1'
1@
01
12
03
14
1?
05
1(
0I
0F
0E
0C
0A
1K
1H
1D
1B
b10 )
0N
b10 *
1O
1%
#104
0%
#112
1=
0>
0+
18
1.
13
04
0?
0;
1I
1F
1E
1C
1A
b11 *
1N
b11 )
1%
#120
0%
#128
0>
1=
1,
18
0-
0+
03
09
14
1?
1:
1;
0.
0I
0F
0E
0C
0A
0K
0H
0D
0B
1M
1L
1J
1G
b100 )
0N
0O
b100 *
1P
1%
0$
#136
0%
#144
1>
08
13
19
04
0?
0:
1I
1F
1E
1C
1A
b101 *
1N
b101 )
1%
#152
0%
#160
0'
0@
1/
03
14
1?
00
0(
0I
0F
0E
0C
0A
1K
1H
1D
1B
b110 )
0N
b110 *
1O
1%
#168
0%
#176
0=
1+
0>
0,
18
1-
13
04
0?
0;
1I
1F
1E
1C
1A
b111 *
1N
b111 )
1%
#184
0%
#192
1'
0>
0=
1@
01
18
1+
0/
12
03
09
14
1?
1:
1;
0.
10
15
1(
0I
0F
0E
0C
0A
0K
0H
0D
0B
0M
0L
0J
0G
b0 )
0N
0O
b0 *
0P
1%
1$
#200
0%
#208
0'
0@
11
1>
02
08
13
19
04
0?
0:
1I
1F
1E
1C
1A
0(
b1 *
1N
b1 )
1%
#216
0%
#224
1'
1@
01
12
03
14
1?
05
1(
0I
0F
0E
0C
0A
1K
1H
1D
1B
b10 )
0N
b10 *
1O
1%
#232
0%
#240
1=
0>
0+
18
1.
13
04
0?
0;
1I
1F
1E
1C
1A
b11 *
1N
b11 )
1%
#248
0%
#256
0>
1=
1,
18
0-
0+
03
09
14
1?
1:
1;
0.
0I
0F
0E
0C
0A
0K
0H
0D
0B
1M
1L
1J
1G
b100 )
0N
0O
b100 *
1P
1%
0$
#264
0%
#272
1>
08
13
19
04
0?
0:
1I
1F
1E
1C
1A
b101 *
1N
b101 )
1%
#280
0%
#288
0'
0@
1/
03
14
1?
00
0(
0I
0F
0E
0C
0A
1K
1H
1D
1B
b110 )
0N
b110 *
1O
1%
#296
0%
#304
0=
1+
0>
0,
18
1-
13
04
0?
0;
1I
1F
1E
1C
1A
b111 *
1N
b111 )
1%
#312
0%
#320
1'
0>
0=
1@
01
18
1+
0/
12
03
09
14
1?
1:
1;
0.
10
15
1(
0I
0F
0E
0C
0A
0K
0H
0D
0B
0M
0L
0J
0G
b0 )
0N
0O
b0 *
0P
1%
1$
#328
0%
#336
0'
0@
11
1>
02
08
13
19
04
0?
0:
1I
1F
1E
1C
1A
0(
b1 *
1N
b1 )
1%
#344
0%
#352
1'
1@
01
12
03
14
1?
05
1(
0I
0F
0E
0C
0A
1K
1H
1D
1B
b10 )
0N
b10 *
1O
1%
#360
0%
#368
1=
0>
0+
18
1.
13
04
0?
0;
1I
1F
1E
1C
1A
b11 *
1N
b11 )
1%
#376
0%
#384
0>
1=
1,
18
0-
0+
03
09
14
1?
1:
1;
0.
0I
0F
0E
0C
0A
0K
0H
0D
0B
1M
1L
1J
1G
b100 )
0N
0O
b100 *
1P
1%
0$
#392
0%
#400
1>
08
13
19
04
0?
0:
1I
1F
1E
1C
1A
b101 *
1N
b101 )
1%
#408
0%
#416
0'
0@
1/
03
14
1?
00
0(
0I
0F
0E
0C
0A
1K
1H
1D
1B
b110 )
0N
b110 *
1O
1%
#424
0%
#432
0=
1+
0>
0,
18
1-
13
04
0?
0;
1I
1F
1E
1C
1A
b111 *
1N
b111 )
1%
#440
0%
#448
0'
0>
0=
0@
11
18
1+
0/
02
09
1?
1:
1;
0.
10
15
06
17
0I
0F
0E
0C
0A
0K
0H
0D
0B
0M
0L
0J
0G
b0 )
0N
0O
b0 *
0P
1&
1%
1$
#456
0%
#464
1'
1@
1>
01
08
16
19
07
0?
0:
1I
1F
1E
1C
1A
1(
b1 *
1N
b1 )
1%
#472
0%
#480
12
06
17
1?
05
0I
0F
0E
0C
0A
1K
1H
1D
1B
b10 )
0N
b10 *
1O
1%
#488
0%
#496
1=
0>
0+
18
1.
16
07
0?
0;
1I
1F
1E
1C
1A
b11 *
1N
b11 )
1%
#504
0%
#512
0>
1=
1,
18
0-
0+
06
09
17
1?
1:
1;
0.
0I
0F
0E
0C
0A
0K
0H
0D
0B
1M
1L
1J
1G
b100 )
0N
0O
b100 *
1P
1%
0$
#520
0%
#528
1>
08
16
19
07
0?
0:
1I
1F
1E
1C
1A
b101 *
1N
b101 )
1%
#536
0%
#544
0'
0@
1/
06
17
1?
00
0(
0I
0F
0E
0C
0A
1K
1H
1D
1B
b110 )
0N
b110 *
1O
1%
#552
0%
#560
0=
1+
0>
0,
18
1-
16
07
0?
0;
1I
1F
1E
1C
1A
b111 *
1N
b111 )
1%
#568
0%
#576
0'
0>
0=
0@
11
18
1+
0/
02
06
09
17
1?
1:
1;
0.
10
15
0I
0F
0E
0C
0A
0K
0H
0D
0B
0M
0L
0J
0G
b0 )
0N
0O
b0 *
0P
1%
1$
#584
0%
#592
1'
1@
1>
01
08
16
19
07
0?
0:
1I
1F
1E
1C
1A
1(
b1 *
1N
b1 )
1%
#600
0%
#608
12
06
17
1?
05
0I
0F
0E
0C
0A
1K
1H
1D
1B
b10 )
0N
b10 *
1O
1%
#616
0%
#624
1=
0>
0+
18
1.
16
07
0?
0;
1I
1F
1E
1C
1A
b11 *
1N
b11 )
1%
#632
0%
#640
0>
1=
1,
18
0-
0+
06
09
17
1?
1:
1;
0.
0I
0F
0E
0C
0A
0K
0H
0D
0B
1M
1L
1J
1G
b100 )
0N
0O
b100 *
1P
1%
0$
#648
0%
#656
1>
08
16
19
07
0?
0:
1I
1F
1E
1C
1A
b101 *
1N
b101 )
1%
#664
0%
#672
0'
0@
1/
06
17
1?
00
0(
0I
0F
0E
0C
0A
1K
1H
1D
1B
b110 )
0N
b110 *
1O
1%
#680
0%
#688
0=
1+
0>
0,
18
1-
16
07
0?
0;
1I
1F
1E
1C
1A
b111 *
1N
b111 )
1%
#696
0%
#704
1'
0>
0=
1@
01
18
1+
0/
12
03
09
14
1?
1:
1;
0.
10
15
06
17
0I
0F
0E
0C
0A
0K
0H
0D
0B
0M
0L
0J
0G
1(
b0 )
0N
0O
b0 *
0P
0&
1%
1$
#712
0%
#720
0'
0@
11
1>
02
08
13
19
04
0?
0:
1I
1F
1E
1C
1A
0(
b1 *
1N
b1 )
1%
#728
0%
#736
1'
1@
01
12
03
14
1?
05
1(
0I
0F
0E
0C
0A
1K
1H
1D
1B
b10 )
0N
b10 *
1O
1%
#744
0%
#752
1=
0>
0+
18
1.
13
04
0?
0;
1I
1F
1E
1C
1A
b11 *
1N
b11 )
1%
#760
0%
#768
0>
1=
1,
18
0-
0+
03
09
14
1?
1:
1;
0.
0I
0F
0E
0C
0A
0K
0H
0D
0B
1M
1L
1J
1G
b100 )
0N
0O
b100 *
1P
1%
0$
#776
0%
#784
1>
08
13
19
04
0?
0:
1I
1F
1E
1C
1A
b101 *
1N
b101 )
1%
#792
0%
#800
0'
0@
1/
03
14
1?
00
0(
0I
0F
0E
0C
0A
1K
1H
1D
1B
b110 )
0N
b110 *
1O
1%
#808
0%
#816
0=
1+
0>
0,
18
1-
13
04
0?
0;
1I
1F
1E
1C
1A
b111 *
1N
b111 )
1%
#824
0%
#832
1'
0>
0=
1@
01
18
1+
0/
12
03
09
14
1?
1:
1;
0.
10
15
1(
0I
0F
0E
0C
0A
0K
0H
0D
0B
0M
0L
0J
0G
b0 )
0N
0O
b0 *
0P
1%
1$
#840
0%
#848
0'
0@
11
1>
02
08
13
19
04
0?
0:
1I
1F
1E
1C
1A
0(
b1 *
1N
b1 )
1%
#856
0%
#864
1'
1@
01
12
03
14
1?
05
1(
0I
0F
0E
0C
0A
1K
1H
1D
1B
b10 )
0N
b10 *
1O
1%
#872
0%
#880
1=
0>
0+
18
1.
13
04
0?
0;
1I
1F
1E
1C
1A
b11 *
1N
b11 )
1%
#888
0%
#896
0>
1=
1,
18
0-
0+
03
09
14
1?
1:
1;
0.
0I
0F
0E
0C
0A
0K
0H
0D
0B
1M
1L
1J
1G
b100 )
0N
0O
b100 *
1P
1%
0$
#904
0%
#912
1>
08
13
19
04
0?
0:
1I
1F
1E
1C
1A
b101 *
1N
b101 )
1%
#920
0%
#928
0'
0@
1/
03
14
1?
00
0(
0I
0F
0E
0C
0A
1K
1H
1D
1B
b110 )
0N
b110 *
1O
1%
#936
0%
#944
0=
1+
0>
0,
18
1-
13
04
0?
0;
1I
1F
1E
1C
1A
b111 *
1N
b111 )
1%
#952
0%
#960
1'
0>
0=
1@
01
18
1+
0/
12
03
09
14
1?
1:
1;
0.
10
15
1(
0I
0F
0E
0C
0A
0K
0H
0D
0B
0M
0L
0J
0G
b0 )
0N
0O
b0 *
0P
1%
1$
#968
0%
#976
0'
0@
11
1>
02
08
13
19
04
0?
0:
1I
1F
1E
1C
1A
0(
b1 *
1N
b1 )
1%
#984
0%
#992
1'
1@
01
12
03
14
1?
05
1(
0I
0F
0E
0C
0A
1K
1H
1D
1B
b10 )
0N
b10 *
1O
1%
#1000
0%
#1008
1=
0>
0+
18
1.
13
04
0?
0;
1I
1F
1E
1C
1A
b11 *
1N
b11 )
1%
#1016
0%
#1024
0>
1=
1,
18
0-
0+
03
09
14
1?
1:
1;
0.
0I
0F
0E
0C
0A
0K
0H
0D
0B
1M
1L
1J
1G
b100 )
0N
0O
b100 *
1P
1%
0$
#1032
0%
#1040
1>
08
13
19
04
0?
0:
1I
1F
1E
1C
1A
b101 *
1N
b101 )
1%
#1048
0%
#1056
0'
0@
1/
03
14
1?
00
0(
0I
0F
0E
0C
0A
1K
1H
1D
1B
b110 )
0N
b110 *
1O
1%
#1064
0%
#1072
0=
1+
0>
0,
18
1-
13
04
0?
0;
1I
1F
1E
1C
1A
b111 *
1N
b111 )
1%
#1080
0%
#1088
1'
0>
0=
1@
01
18
1+
0/
12
03
09
14
1?
1:
1;
0.
10
15
1(
0I
0F
0E
0C
0A
0K
0H
0D
0B
0M
0L
0J
0G
b0 )
0N
0O
b0 *
0P
1%
1$
