ParaleloSerial(azul)/ParaleloSerial.vcd
$date
	Tue Jun  1 00:58:13 2021
$end
$version
	Icarus Verilog
$end
$timescale
	1s
$end
$scope module BUF $end
$var wire 1 ! A $end
$var wire 1 " Y $end
$upscope $end
$scope module BancoPruebasParaleloSerial $end
$var wire 1 # valid_in $end
$var wire 1 $ data_out_estruct $end
$var wire 1 % data_out $end
$var wire 8 & data_in [7:0] $end
$var wire 1 ' clk4_f $end
$var wire 1 ( clk32_f $end
$scope module conductual $end
$var wire 1 # valid_in $end
$var wire 8 ) data_in [7:0] $end
$var wire 1 ' clk4_f $end
$var wire 1 ( clk32_f $end
$var reg 8 * data2send [7:0] $end
$var reg 1 % data_out $end
$var reg 3 + selector [2:0] $end
$upscope $end
$scope module estructural $end
$var wire 8 , _000_ [7:0] $end
$var wire 1 - _001_ $end
$var wire 3 . _002_ [2:0] $end
$var wire 1 / _003_ $end
$var wire 1 0 _005_ $end
$var wire 3 1 _006_ [2:0] $end
$var wire 1 2 _007_ $end
$var wire 1 3 _008_ $end
$var wire 1 4 _009_ $end
$var wire 1 5 _010_ $end
$var wire 1 6 _011_ $end
$var wire 1 7 _012_ $end
$var wire 1 8 _014_ $end
$var wire 1 9 _015_ $end
$var wire 1 : _016_ $end
$var wire 1 ; _017_ $end
$var wire 1 < _018_ $end
$var wire 1 = _019_ $end
$var wire 1 > _020_ $end
$var wire 1 ? _021_ $end
$var wire 1 @ _022_ $end
$var wire 1 A _026_ $end
$var wire 1 B _039_ $end
$var wire 1 C _040_ $end
$var wire 1 D _041_ $end
$var wire 1 E _042_ $end
$var wire 1 F _043_ $end
$var wire 1 G _044_ $end
$var wire 1 H _045_ $end
$var wire 1 I _046_ $end
$var wire 1 J _057_ $end
$var wire 1 K _059_ $end
$var wire 1 L _061_ $end
$var wire 1 M _063_ $end
$var wire 1 N _065_ $end
$var wire 1 O _067_ $end
$var wire 1 P _069_ $end
$var wire 1 Q _071_ $end
$var wire 1 R _073_ $end
$var wire 1 S _075_ $end
$var wire 1 # valid_in $end
$var wire 8 T data_in [7:0] $end
$var wire 1 ' clk4_f $end
$var wire 1 ( clk32_f $end
$var wire 3 U _074_ [2:0] $end
$var wire 8 V _072_ [7:0] $end
$var wire 1 W _070_ $end
$var wire 1 X _068_ $end
$var wire 1 Y _066_ $end
$var wire 1 Z _064_ $end
$var wire 1 [ _062_ $end
$var wire 1 \ _060_ $end
$var wire 1 ] _058_ $end
$var wire 1 ^ _056_ $end
$var wire 1 _ _055_ $end
$var wire 1 ` _054_ $end
$var wire 1 a _053_ $end
$var wire 1 b _052_ $end
$var wire 1 c _051_ $end
$var wire 1 d _050_ $end
$var wire 1 e _049_ $end
$var wire 1 f _048_ $end
$var wire 1 g _047_ $end
$var wire 1 h _038_ $end
$var wire 1 i _037_ $end
$var wire 1 j _036_ $end
$var wire 1 k _035_ $end
$var wire 1 l _034_ $end
$var wire 1 m _033_ $end
$var wire 1 n _032_ $end
$var wire 1 o _031_ $end
$var wire 1 p _030_ $end
$var wire 1 q _029_ $end
$var wire 1 r _028_ $end
$var wire 1 s _027_ $end
$var wire 1 t _025_ $end
$var wire 1 u _024_ $end
$var wire 1 v _023_ $end
$var wire 32 w _013_ [31:0] $end
$var wire 3 x _004_ [2:0] $end
$var reg 8 y data2send [7:0] $end
$var reg 1 $ data_out_estruct $end
$var reg 3 z selector [2:0] $end
$upscope $end
$scope module probador $end
$var wire 1 % data_out $end
$var wire 1 $ data_out_estruct $end
$var reg 1 ( clk32_f $end
$var reg 1 ' clk4_f $end
$var reg 8 { data_in [7:0] $end
$var reg 1 # valid_in $end
$upscope $end
$upscope $end
$scope module DFF $end
$var wire 1 | C $end
$var wire 1 } D $end
$var reg 1 ~ Q $end
$upscope $end
$scope module DFFSR $end
$var wire 1 !" C $end
$var wire 1 "" D $end
$var wire 1 #" R $end
$var wire 1 $" S $end
$var reg 1 %" Q $end
$upscope $end
$scope module NAND $end
$var wire 1 &" A $end
$var wire 1 '" B $end
$var wire 1 (" Y $end
$upscope $end
$scope module NOR $end
$var wire 1 )" A $end
$var wire 1 *" B $end
$var wire 1 +" Y $end
$upscope $end
$scope module NOT $end
$var wire 1 ," A $end
$var wire 1 -" Y $end
$upscope $end
$enddefinitions $end
#0
$dumpvars
z-"
z,"
x+"
z*"
z)"
x("
z'"
z&"
x%"
z$"
z#"
z""
z!"
x~
z}
z|
b0 {
b1 z
bx y
b10 x
b10 w
0v
0u
0t
1s
1r
0q
0p
0o
0n
0m
0l
0k
0j
0i
0h
1g
0f
1e
0d
0c
0b
0a
0`
0_
x^
x]
x\
x[
xZ
xY
xX
xW
b10111100 V
b0 U
b0 T
1S
1R
0Q
1P
0O
0N
0M
0L
0K
0J
0I
0H
0G
0F
0E
1D
0C
0B
1A
1@
0?
1>
1=
1<
1;
1:
19
18
x7
x6
x5
x4
x3
x2
b0 1
x0
x/
b0 .
x-
b10111100 ,
b1 +
bx *
b0 )
1(
0'
b0 &
x%
x$
0#
z"
z!
$end
#2
0(
#4
1p
1q
1E
b11 x
1?
0>
b11 w
0P
0e
1O
1d
b10 z
b10 +
1(
#6
0(
#8
1n
1o
1F
b100 x
1>
0=
b11 +
b100 w
0O
0d
1N
1c
b11 z
1(
#10
0(
#12
1l
1m
1G
b101 x
1=
0<
b101 w
0N
0c
1M
1b
b100 z
b100 +
1(
#14
0(
#16
14
1[
13
1Z
1$
12
1Y
1-
17
1^
10
1X
16
1]
1/
1W
1j
1k
1H
15
1\
0;
1%
b101 .
b101 U
b11111111 ,
b11111111 V
b110 x
1<
1L
1a
b101 +
b10111100 *
0S
0R
0g
1#
b11111111 &
b11111111 )
b11111111 T
b11111111 {
b10111100 y
b110 w
0Q
0f
0M
0b
b101 z
1(
1'
#18
0(
#20
0$
1h
1i
1I
0-
07
0^
b111 x
1;
06
0]
0:
b110 .
b110 U
0%
b111 w
0L
0a
1K
1`
b110 z
b110 +
1(
#22
0(
#24
1u
1v
1B
b0 x
16
1]
1:
09
b111 .
b111 U
b111 +
b1000 w
0K
0`
1J
1_
b111 z
1(
#26
0(
#28
0u
0v
0B
0h
0i
0I
0j
0k
0H
0l
0m
0G
0n
0o
0F
0p
0q
0E
18
0r
0s
0D
1$
0t
0C
b1 x
0@
1-
17
1^
19
b0 .
b0 U
1%
b1 w
1Q
1f
0J
0_
b0 z
b0 +
1(
#30
0(
#32
0$
0-
07
0^
06
0]
05
0\
04
0[
03
0Z
1r
1s
1D
02
0Y
0%
b10 x
1@
00
0X
0?
b1 .
b1 U
b1 +
b10 w
0Q
0f
1P
1e
b1 z
1(
0'
#34
0(
#36
1$
1-
17
1^
16
1]
15
1\
14
1[
1p
1q
1E
13
1Z
b11 x
10
1X
1?
12
1Y
0>
b10 .
b10 U
1%
b11 w
0P
0e
1O
1d
b10 z
b10 +
1(
#38
0(
#40
1n
1o
1F
b100 x
1>
0=
b11 .
b11 U
b11 +
b100 w
0O
0d
1N
1c
b11 z
1(
#42
0(
#44
1l
1m
1G
b101 x
1=
0<
b100 .
b100 U
b101 w
0N
0c
1M
1b
b100 z
b100 +
1(
#46
0(
#48
1j
1k
1H
b110 x
1<
0;
b101 .
b101 U
b10101010 ,
b10101010 V
b101 +
b110 w
0M
0b
1L
1a
b101 z
b11111111 y
b10101010 &
b10101010 )
b10101010 T
b10101010 {
b11111111 *
1(
1'
#50
0(
#52
1h
1i
1I
b111 x
1;
0:
b110 .
b110 U
b111 w
0L
0a
1K
1`
b110 z
b110 +
1(
#54
0(
#56
1u
1v
1B
b0 x
1:
09
b111 .
b111 U
b111 +
b1000 w
0K
0`
1J
1_
b111 z
1(
#58
0(
#60
0u
0v
0B
0h
0i
0I
0j
0k
0H
0l
0m
0G
0n
0o
0F
0p
0q
0E
18
0r
0s
0D
0t
0C
b1 x
0@
19
b0 .
b0 U
b1 w
1Q
1f
0J
0_
b0 z
b0 +
1(
#62
0(
#64
1r
1s
1D
b10 x
1@
0?
b1 .
b1 U
b1 +
b10 w
0Q
0f
1P
1e
b1 z
1(
0'
#66
0(
#68
1p
1q
1E
b11 x
1?
0>
b10 .
b10 U
b11 w
0P
0e
1O
1d
b10 z
b10 +
1(
#70
0(
#72
1n
1o
1F
b100 x
1>
0=
b11 .
b11 U
b11 +
b100 w
0O
0d
1N
1c
b11 z
1(
#74
0(
#76
1l
1m
1G
b101 x
1=
0<
b100 .
b100 U
b101 w
0N
0c
1M
1b
b100 z
b100 +
1(
#78
0(
#80
0$
0-
07
0^
1j
1k
1H
06
0]
b110 x
1<
05
0\
0;
b101 .
b101 U
0%
b100101 ,
b100101 V
b101 +
b110 w
0M
0b
1L
1a
b101 z
b10101010 *
b100101 &
b100101 )
b100101 T
b100101 {
b10101010 y
1(
1'
#82
0(
#84
1$
1h
1i
1I
1-
17
1^
b111 x
15
1\
1;
16
1]
0:
b110 .
b110 U
1%
b111 w
0L
0a
1K
1`
b110 z
b110 +
1(
#86
0(
#88
1u
1v
1B
0$
0%
b0 x
1:
0-
07
0^
09
b111 .
b111 U
b111 +
b1000 w
0K
0`
1J
1_
b111 z
1(
#90
0(
#92
0u
0v
0B
0h
0i
0I
0j
0k
0H
0l
0m
0G
0n
0o
0F
0p
0q
0E
18
0r
0s
0D
1$
0t
0C
b1 x
0@
1-
17
1^
19
b0 .
b0 U
1%
b1 w
1Q
1f
0J
0_
b0 z
b0 +
1(
#94
0(
#96
0$
0-
07
0^
06
0]
05
0\
04
0[
03
0Z
1r
1s
1D
02
0Y
0%
b10 x
1@
00
0X
0?
b1 .
b1 U
b1 +
b10 w
0Q
0f
1P
1e
b1 z
1(
0'
#98
0(
#100
1$
1-
17
1^
16
1]
15
1\
14
1[
1p
1q
1E
13
1Z
b11 x
10
1X
1?
12
1Y
0>
b10 .
b10 U
1%
b11 w
0P
0e
1O
1d
b10 z
b10 +
1(
#102
0(
#104
0$
0-
07
0^
06
0]
05
0\
1n
1o
1F
04
0[
0%
b100 x
1>
03
0Z
0=
b11 .
b11 U
b11 +
b100 w
0O
0d
1N
1c
b11 z
1(
#106
0(
#108
1$
1-
17
1^
16
1]
1l
1m
1G
15
1\
b101 x
13
1Z
1=
14
1[
0<
b100 .
b100 U
1%
b101 w
0N
0c
1M
1b
b100 z
b100 +
1(
#110
0(
#112
04
0[
03
0Z
02
0Y
00
0X
1j
1k
1H
0/
0W
b110 x
1<
0;
b0 .
b0 U
b10111100 ,
b10111100 V
b101 +
b110 w
0M
0b
1L
1a
b101 z
b100101 y
1S
1R
1g
0#
b11101110 &
b11101110 )
b11101110 T
b11101110 {
b100101 *
1(
1'
#114
0(
#116
0$
1h
1i
1I
0-
07
0^
b111 x
05
0\
1;
06
0]
0:
0%
b111 w
0L
0a
1K
1`
b110 z
b110 +
1(
#118
0(
#120
1u
1v
1B
1$
1%
b0 x
1:
1-
17
1^
09
b111 +
b1000 w
0K
0`
1J
1_
b111 z
1(
#122
0(
#124
0u
0v
0B
0h
0i
0I
0j
0k
0H
0l
0m
0G
0n
0o
0F
0p
0q
0E
18
0r
0s
0D
0$
0t
0C
b1 x
0@
0-
07
0^
19
0%
b1 w
1Q
1f
0J
0_
b0 z
b0 +
1(
#126
0(
#128
1r
1s
1D
b10 x
1@
0?
b1 +
b10 w
0Q
0f
1P
1e
b1 z
1(
0'
#130
0(
#132
1$
1-
17
1^
16
1]
15
1\
14
1[
1p
1q
1E
13
1Z
b11 x
1?
12
1Y
0>
1%
b11 w
0P
0e
1O
1d
b10 z
b10 +
1(
#134
0(
#136
0$
0-
07
0^
06
0]
05
0\
1n
1o
1F
04
0[
0%
b100 x
02
0Y
1>
03
0Z
0=
b11 +
b100 w
0O
0d
1N
1c
b11 z
1(
#138
0(
#140
1l
1m
1G
b101 x
1=
0<
b101 w
0N
0c
1M
1b
b100 z
b100 +
1(
#142
0(
#144
14
1[
13
1Z
1$
12
1Y
1-
17
1^
10
1X
16
1]
1/
1W
1j
1k
1H
15
1\
0;
1%
b110 x
1<
1L
1a
b101 +
b10111100 *
b10001 &
b10001 )
b10001 T
b10001 {
b10111100 y
b110 w
0Q
0f
0M
0b
b101 z
1(
1'
#146
0(
#148
0$
1h
1i
1I
0-
07
0^
b111 x
1;
06
0]
0:
0%
b111 w
0L
0a
1K
1`
b110 z
b110 +
1(
#150
0(
#152
1u
1v
1B
b0 x
16
1]
1:
09
b111 +
b1000 w
0K
0`
1J
1_
b111 z
1(
#154
0(
#156
0u
0v
0B
0h
0i
0I
0j
0k
0H
0l
0m
0G
0n
0o
0F
0p
0q
0E
18
0r
0s
0D
1$
0t
0C
b1 x
0@
1-
17
1^
19
1%
b1 w
1Q
1f
0J
0_
b0 z
b0 +
1(
#158
0(
#160
0$
0-
07
0^
06
0]
05
0\
04
0[
03
0Z
1r
1s
1D
02
0Y
0%
b10 x
1@
00
0X
0?
b1 +
b10 w
0Q
0f
1P
1e
b1 z
1(
0'
#162
0(
#164
1$
1-
17
1^
16
1]
15
1\
14
1[
1p
1q
1E
13
1Z
b11 x
10
1X
1?
12
1Y
0>
1%
b11 w
0P
0e
1O
1d
b10 z
b10 +
1(
#166
0(
#168
1n
1o
1F
b100 x
1>
0=
b11 +
b100 w
0O
0d
1N
1c
b11 z
1(
#170
0(
#172
1l
1m
1G
b101 x
1=
0<
b101 w
0N
0c
1M
1b
b100 z
b100 +
1(
#174
0(
#176
1j
1k
1H
0;
b110 x
1<
1L
1a
b110 w
0Q
0f
0M
0b
b101 z
b0 &
b0 )
b0 T
b0 {
b101 +
1(
1'
#178
0(
#180
0$
1h
1i
1I
0-
07
0^
b111 x
1;
06
0]
0:
0%
b111 w
0L
0a
1K
1`
b110 z
b110 +
1(
#182
0(
#184
1u
1v
1B
b0 x
16
1]
1:
09
b111 +
b1000 w
0K
0`
1J
1_
b111 z
1(
#186
0(
#188
0u
0v
0B
0h
0i
0I
0j
0k
0H
0l
0m
0G
0n
0o
0F
0p
0q
0E
18
0r
0s
0D
1$
0t
0C
b1 x
0@
1-
17
1^
19
1%
b1 w
1Q
1f
0J
0_
b0 z
b0 +
1(
#190
0(
#192
0$
0-
07
0^
06
0]
05
0\
04
0[
03
0Z
1r
1s
1D
02
0Y
0%
b10 x
1@
00
0X
0?
b1 +
b10 w
0Q
0f
1P
1e
b1 z
1(
0'
#194
0(
#196
1$
1-
17
1^
16
1]
15
1\
14
1[
1p
1q
1E
13
1Z
b11 x
10
1X
1?
12
1Y
0>
1%
b11 w
0P
0e
1O
1d
b10 z
b10 +
1(
#198
0(
#200
1n
1o
1F
b100 x
1>
0=
b11 +
b100 w
0O
0d
1N
1c
b11 z
1(
#202
0(
#204
1l
1m
1G
b101 x
1=
0<
b101 w
0N
0c
1M
1b
b100 z
b100 +
1(
#206
0(
#208
1j
1k
1H
0;
b110 x
1<
1L
1a
b101 +
b110 w
0Q
0f
0M
0b
b101 z
1(
1'
